"num_nom","num_nom_retenu","num_tax_sup","rang","nom_sci","nom_supra_generique","genre","epithete_infra_generique","epithete_sp","type_epithete","epithete_infra_sp","cultivar_groupe","cultivar","nom_commercial","auteur","annee","biblio_origine","nom_addendum","homonyme","basionyme","synonyme_proparte","synonyme_douteux","synonyme_mal_applique","hybride_parent_01","hybride_parent_01_notes","hybride_parent_02","hybride_parent_02_notes","synonyme_orthographique","notes","champs_supplementaires","nom_scientifique","nom_vernaculaire","page","code_taxon","milieu","floraison","type","sol","rarete_region_alt","region_bota_monde","etymologie","taille","formule_hybridite","culture","nom_sci_html"
"1","1",,"20","Plantae","Plantae",,,,,,,,,,NULL,NULL,NULL,NULL,NULL,NULL,NULL,NULL,NULL,NULL,NULL,NULL,NULL,NULL,"<row></row>",,,,,,,,,,,,,,,"<span class=\"sci\"><span class=\"supra_gen\">Plantae</span></span>"
"2","2","1","80","Cryptogames","Cryptogames",,,,,,,,,,NULL,NULL,NULL,NULL,NULL,NULL,NULL,NULL,NULL,NULL,NULL,NULL,NULL,NULL,"<row></row>","Cryptogames","Cryptogames","1",,,,,,,,"Gr. //lycos//, loup ; //podion//, petit pied : aspect des rameaux",,,,"<span class=\"sci\"><span class=\"supra_gen\">Cryptogames</span></span>"
"3","3","2","90","Cryptogames vasculaires","Cryptogames vasculaires",,,,,,,,,,NULL,NULL,NULL,NULL,NULL,NULL,NULL,NULL,NULL,NULL,NULL,NULL,NULL,NULL,"<row></row>","Cryptogames vasculaires","Cryptogames vasculaires","1","Em1",,,,,,,,,,,"<span class=\"sci\"><span class=\"supra_gen\">Cryptogames vasculaires</span></span>"
"4","4","3","180","Lycopodiaceae","Lycopodiaceae",,,,,,,,,,NULL,NULL,NULL,NULL,NULL,NULL,NULL,NULL,NULL,NULL,NULL,NULL,NULL,NULL,"<row></row>","Lycopodiacees",,"1","F001",,,,,,,,,,,"<span class=\"sci\"><span class=\"supra_gen\">Lycopodiaceae</span></span>"
"5","5","4","220","Lycopodium",,"Lycopodium",,,,,,,,"L.",NULL,NULL,NULL,NULL,NULL,NULL,NULL,NULL,NULL,NULL,NULL,NULL,NULL,NULL,"<row></row>","Lycopodium L.","Lycopode","1","G001",,,,,,,,,,,"<span class=\"sci\"><span class=\"gen\">Lycopodium</span></span>"
"6","6","5","290","Lycopodium issleri",,"Lycopodium",,"issleri",,,,,,"Ry",NULL,NULL,NULL,NULL,NULL,NULL,NULL,NULL,NULL,NULL,NULL,NULL,NULL,NULL,"<row></row>","L. Issleri Ry",,"1",,,,,,,,,,,,"<span class=\"sci\"><span class=\"gen\">Lycopodium</span> <span class=\"sp\">issleri</span></span>"
"7","7","5","290","Lycopodium alpinum",,"Lycopodium",,"alpinum",,,,,,"L.",NULL,NULL,NULL,NULL,NULL,NULL,NULL,NULL,NULL,NULL,NULL,NULL,NULL,NULL,"<row></row>","L. alpinum L.",,"1","E0001","Rochers, bruyères","Jt-s.","V","Silice","RR : Alp., Vosg., Auv., Cant., Loire, Mezenc, Pyr. (1100-2500 m.)","Arct.-alp.",,,,,"<span class=\"sci\"><span class=\"gen\">Lycopodium</span> <span class=\"sp\">alpinum</span></span>"
"8","8","5","290","Lycopodium anceps",,"Lycopodium",,"anceps",,,,,,"Wallr.",NULL,NULL,NULL,NULL,NULL,NULL,NULL,NULL,NULL,NULL,NULL,NULL,NULL,NULL,"<row></row>","L. anceps Wallr.",,"1",,,,,,"RRR : Vosg.",,,,,,"<span class=\"sci\"><span class=\"gen\">Lycopodium</span> <span class=\"sp\">anceps</span></span>"
"9","9","5","290","Lycopodium chamaecyparissus",,"Lycopodium",,"chamaecyparissus",,,,,,"A. Br.",NULL,NULL,NULL,NULL,NULL,NULL,NULL,NULL,NULL,NULL,NULL,NULL,NULL,NULL,"<row></row>","L. Chamæcyparissus A. Br.",,"1",,,,,,"RR : suhalp., Est, Centre, env. Paris",,,,,,"<span class=\"sci\"><span class=\"gen\">Lycopodium</span> <span class=\"sp\">chamaecyparissus</span></span>"
"10","10","5","290","Lycopodium complanatum",,"Lycopodium",,"complanatum",,,,,,"L.",NULL,NULL,NULL,NULL,NULL,NULL,NULL,NULL,NULL,NULL,NULL,NULL,NULL,NULL,"<row></row>","L. complanatum L.",,"1","E0002","Rochers, bruyères","At.-oct.","V","Silice","R. (300-1600 m.)","Circumbor.",,,,,"<span class=\"sci\"><span class=\"gen\">Lycopodium</span> <span class=\"sp\">complanatum</span></span>"
"11","11","5","290","Lycopodium clavatum",,"Lycopodium",,"clavatum",,,,,,"L.",NULL,NULL,NULL,NULL,NULL,NULL,NULL,NULL,NULL,NULL,NULL,NULL,NULL,NULL,"<row></row>","L. clavatum L.",,"1","E0003","Bruyères, bois","Été","V","Préf. silice","AC : 0-2500 ; RR:/Médit. 2, Co.","Subcosm.",,"20-100",,,"<span class=\"sci\"><span class=\"gen\">Lycopodium</span> <span class=\"sp\">clavatum</span></span>"
"12","12","5","290","Lycopodium annotium",,"Lycopodium",,"annotium",,,,,,"L.",NULL,NULL,NULL,NULL,NULL,NULL,NULL,NULL,"73",NULL,NULL,NULL,NULL,NULL,"<row></row>","L. annotium L.",,"1",,,,,,,,,,,,"<span class=\"sci\"><span class=\"gen\">Lycopodium</span> <span class=\"sp\">annotium</span></span>"
"13","13","5","290","Lycopodium inundatum",,"Lycopodium",,"inundatum",,,,,,"L.",NULL,NULL,NULL,NULL,NULL,NULL,NULL,NULL,NULL,NULL,NULL,NULL,NULL,NULL,"<row></row>","L. inundatum L.",,"1","E0005","Lieux humides non calcaires","Jt-oct.","V",,"AC : 0-2200 m. ; nul : Médit.","Circumbor.",,"01/05/20",,,"<span class=\"sci\"><span class=\"gen\">Lycopodium</span> <span class=\"sp\">inundatum</span></span>"
"14","14","5","290","Lycopodium selago",,"Lycopodium",,"selago",,,,,,"L.",NULL,NULL,NULL,NULL,NULL,NULL,NULL,NULL,NULL,NULL,NULL,NULL,NULL,NULL,"<row></row>","L. Selago L.",,"2","E0006","Bois, pelouses","Jt-sept.","V",,"AC: (200-3000 m.) ; RR: plaine, Médlt. 2.","Subcosm.",,"01/05/20",,,"<span class=\"sci\"><span class=\"gen\">Lycopodium</span> <span class=\"sp\">selago</span></span>"
"15","15","3","180","Selaginellaceae","Selaginellaceae",,,,,,,,,,NULL,NULL,NULL,NULL,NULL,NULL,NULL,NULL,NULL,NULL,NULL,NULL,NULL,NULL,"<row></row>","Selaginellacees",,"2","F002",,,,,,,,,,,"<span class=\"sci\"><span class=\"supra_gen\">Selaginellaceae</span></span>"
"16","16","15","220","Selaginella",,"Selaginella",,,,,,,,"P. B.",NULL,NULL,NULL,NULL,NULL,NULL,NULL,NULL,NULL,NULL,NULL,NULL,NULL,NULL,"<row></row>","Selaginella P. B.","Sélaginelle","2","G002",,,,,,,"Diminutif de Selago",,,,"<span class=\"sci\"><span class=\"gen\">Selaginella</span></span>"
"17","16","16","290","Selaginella lepidophylla",,"Selaginella",,"lepidophylla",,,,,,,NULL,NULL,NULL,NULL,NULL,NULL,NULL,NULL,NULL,NULL,NULL,NULL,NULL,NULL,"<row></row>","S. lepidophylla",,"2",,,,,,,,,,,,"<span class=\"sci\"><span class=\"gen\">Selaginella</span> <span class=\"sp\">lepidophylla</span></span>"
"18","18","16","290","Selaginella hygrometrica",,"Selaginella",,"hygrometrica",,,,,,,NULL,NULL,NULL,NULL,NULL,NULL,NULL,NULL,NULL,NULL,NULL,NULL,NULL,NULL,"<row></row>","S. hygrometrica",,"2",,,,,,,,,,,,"<span class=\"sci\"><span class=\"gen\">Selaginella</span> <span class=\"sp\">hygrometrica</span></span>"
"19","19","16","290","Selaginella helvetica",,"Selaginella",,"helvetica",,,,,,"(L.) Link.",NULL,NULL,NULL,NULL,NULL,NULL,NULL,NULL,NULL,NULL,NULL,NULL,NULL,NULL,"<row></row>","S. Helvetica (L.) Link.",,"2","E0007","Bois, pelouses humides, rochers","M.-sept.","V",,"RR : Is., Hte-Sav., Alp.-M. (600-2500m.)","Euras.",,"04/10/11",,,"<span class=\"sci\"><span class=\"gen\">Selaginella</span> <span class=\"sp\">helvetica</span></span>"
"20","20","16","290","Selaginella denticulata",,"Selaginella",,"denticulata",,,,,,"(L.) Link.",NULL,NULL,NULL,NULL,NULL,NULL,NULL,NULL,NULL,NULL,NULL,NULL,NULL,NULL,"<row></row>","S. denticulata (L.) Link.",,"2","E0008","Pelouses humides","Av.-sept.","V",,"RR : Médit. 1 (0-1500 m.)","Médit.",,"04/10/11",,,"<span class=\"sci\"><span class=\"gen\">Selaginella</span> <span class=\"sp\">denticulata</span></span>"
"21","21","16","290","Selaginella spinosa",,"Selaginella",,"spinosa",,,,,,"P. B.",NULL,NULL,NULL,NULL,NULL,NULL,NULL,NULL,NULL,NULL,NULL,NULL,NULL,NULL,"<row></row>","S. spinosa P. B.",,"2","E0009","Pelouses, rochers humides","Jt-at.","V",,"AR : Alp., Pyr., Jura, Auv., Corb. (350-2700 m.)","Arct-alp.",,"01/04/15",,,"<span class=\"sci\"><span class=\"gen\">Selaginella</span> <span class=\"sp\">spinosa</span></span>"
"22","22","3","180","Equisetaceae","Equisetaceae",,,,,,,,,,NULL,NULL,NULL,NULL,NULL,NULL,NULL,NULL,NULL,NULL,NULL,NULL,NULL,NULL,"<row></row>","Equisetacees","Prêles","2","F003",,,,,,,,,,,"<span class=\"sci\"><span class=\"supra_gen\">Equisetaceae</span></span>"
"23","23","22","220","Equisetum",,"Equisetum",,,,,,,,"L.",NULL,NULL,NULL,NULL,NULL,NULL,NULL,NULL,NULL,NULL,NULL,NULL,NULL,NULL,"<row></row>","Equisetum L.",,"2","G003",,,,,,,"Lat. //equus//, cheval ; //setum//, crin : « Queue de cheval », nom populaire de ces pl.",,,,"<span class=\"sci\"><span class=\"gen\">Equisetum</span></span>"
"24","24","23","290","Equisetum maximum",,"Equisetum",,"maximum",,,,,,"Lmk.",NULL,NULL,NULL,NULL,NULL,NULL,NULL,NULL,NULL,NULL,NULL,NULL,NULL,NULL,"<row></row>","E. maximum Lmk.",,"2","E0010","Marécages ombragés","Mrs-av.","V",,"AC (0-1500 m.)","Circumbor. temp.",,"40-150",,,"<span class=\"sci\"><span class=\"gen\">Equisetum</span> <span class=\"sp\">maximum</span></span>"
"25","24","23","290","Equisetum telmateia",,"Equisetum",,"telmateia",,,,,,"Ehr.",NULL,NULL,NULL,NULL,NULL,NULL,NULL,NULL,NULL,NULL,NULL,NULL,NULL,NULL,"<row></row>","E. Telmateia Ehr.",,"2",,,,,,,,,,,,"<span class=\"sci\"><span class=\"gen\">Equisetum</span> <span class=\"sp\">telmateia</span></span>"
"26","26","23","290","Equisetum arvense",,"Equisetum",,"arvense",,,,,,"L.",NULL,NULL,NULL,NULL,NULL,NULL,NULL,NULL,NULL,NULL,NULL,NULL,NULL,NULL,"<row></row>","E. arvense L.",,"2","E0011","Champs humides","Mrs-m.","V",,"CC (0-2500 m.)","Circumbor.",,"20-60",,,"<span class=\"sci\"><span class=\"gen\">Equisetum</span> <span class=\"sp\">arvense</span></span>"
"27","27","23","290","Equisetum silvaticum",,"Equisetum",,"silvaticum",,,,,,"L.",NULL,NULL,NULL,NULL,NULL,NULL,NULL,NULL,NULL,NULL,NULL,NULL,NULL,NULL,"<row></row>","E. silvaticum L.",,"3","E0012","Bois humides, paturages","Av.-jn.","V",,"R (300-1650 m.)","Circumbor.",,"30-80",,,"<span class=\"sci\"><span class=\"gen\">Equisetum</span> <span class=\"sp\">silvaticum</span></span>"
"28","28","23","290","Equisetum pratense",,"Equisetum",,"pratense",,,,,,"Ehr.",NULL,NULL,NULL,NULL,NULL,NULL,NULL,NULL,NULL,NULL,NULL,NULL,NULL,NULL,"<row></row>","E. pratense Ehr.",,"3","E0013","Bois et pâtures humides","Av.-jn.","V",,"RRR (Hte-Sav. : Chedde. vers 600 m.)","Circumbor. (0-2150 m.)",,"01/12/30",,,"<span class=\"sci\"><span class=\"gen\">Equisetum</span> <span class=\"sp\">pratense</span></span>"
"29","29","23","290","Equisetum palustre",,"Equisetum",,"palustre",,,,,,"L.",NULL,NULL,NULL,NULL,NULL,NULL,NULL,NULL,NULL,NULL,NULL,NULL,NULL,NULL,"<row></row>","E. palustre L.",,"3","E0014","Marécages","M.-sept.","V",,"C (0-2500 m.)","Circumbor.",,"25-60",,,"<span class=\"sci\"><span class=\"gen\">Equisetum</span> <span class=\"sp\">palustre</span></span>"
"30","30","23","290","Equisetum x littorale",,"Equisetum",,"x littorale",,,,,,"Kuhl.",NULL,NULL,NULL,NULL,NULL,NULL,NULL,NULL,NULL,NULL,NULL,NULL,NULL,NULL,"<row></row>","× E. littorale Kuhl.",,"3","E0015",,,,,"RR",,,,"? E. arvense × limosum",,"<span class=\"sci\"><span class=\"gen\">Equisetum</span> <span class=\"hyb\">x <span class=\"sp\">littorale</span></span></span>"
"31","31","31","290","Equisetum limosum",,"Equisetum",,"limosum",,,,,,"(L.) Wild.",NULL,NULL,NULL,NULL,NULL,NULL,NULL,NULL,NULL,NULL,NULL,NULL,NULL,NULL,"<row></row>","E. limosum",,"3","E0016","Eaux tranquilles","M.-at.","V",,"C (0-2500 m.) ; R : Midi ; nul : Co.","Circumbor.",,"50-150",,,"<span class=\"sci\"><span class=\"gen\">Equisetum</span> <span class=\"sp\">limosum</span></span>"
"32",,,"290","Equisetum hyemade",,"Equisetum",,"hyemade",,,,,,,NULL,NULL,NULL,NULL,NULL,NULL,NULL,NULL,"39",NULL,NULL,NULL,NULL,NULL,"<row></row>","E. hyemade",,"3",,,,,,,,,,,,"<span class=\"sci\"><span class=\"gen\">Equisetum</span> <span class=\"sp\">hyemade</span></span>"
"33","33","23","290","Equisetum ramosissimum",,"Equisetum",,"ramosissimum",,,,,,"Desf.",NULL,NULL,NULL,NULL,NULL,NULL,NULL,NULL,NULL,NULL,NULL,NULL,NULL,NULL,"<row></row>","E. ramosissimum Desf.",,"3","E0017","Sables humides, alluvions","M.-jt.","V",,"AR ; RR au N de la Loire (0-1000 m.)","Circumbor.",,,,,"<span class=\"sci\"><span class=\"gen\">Equisetum</span> <span class=\"sp\">ramosissimum</span></span>"
"34","34","33","340","Equisetum ramosissimum var. paleaceum",,"Equisetum",,"ramosissimum","var.","paleaceum",,,,"(Schl.) Rbh.",NULL,NULL,NULL,NULL,NULL,NULL,NULL,NULL,NULL,NULL,NULL,NULL,NULL,NULL,"<row></row>","E. ramosissimum var. paleaceum (Schl.) Rbh.",,"3",,,,,,"R : alluvions duRhin, de la Loire, de la Seine, etc.",,,,,,"<span class=\"sci\"><span class=\"gen\">Equisetum</span> <span class=\"sp\">ramosissimum</span> <abbr class=\"type_epithete\" title=\"Variété\">var.</abbr> <span class=\"infra-sp\">paleaceum</span></span>"
"35","34","23","290","Equisetum trachyodon",,"Equisetum",,"trachyodon",,,,,,"Bor.",NULL,NULL,NULL,NULL,NULL,NULL,NULL,NULL,NULL,NULL,NULL,NULL,NULL,NULL,"<row></row>","E. trachyodon Bor.",,"3",,,,,,,,,,,,"<span class=\"sci\"><span class=\"gen\">Equisetum</span> <span class=\"sp\">trachyodon</span></span>"
"36","36","33","340","Equisetum ramosissimum var. virgatum",,"Equisetum",,"ramosissimum","var.","virgatum",,,,"A. Br.",NULL,NULL,NULL,NULL,NULL,NULL,NULL,NULL,NULL,NULL,NULL,NULL,NULL,NULL,"<row></row>","E. ramosissimum var. virgatum A. Br.",,"3",,,,,,"AR",,,,,,"<span class=\"sci\"><span class=\"gen\">Equisetum</span> <span class=\"sp\">ramosissimum</span> <abbr class=\"type_epithete\" title=\"Variété\">var.</abbr> <span class=\"infra-sp\">virgatum</span></span>"
"37","37","33","340","Equisetum ramosissimum var. campanulatum",,"Equisetum",,"ramosissimum","var.","campanulatum",,,,"Vauch.",NULL,NULL,NULL,NULL,NULL,NULL,NULL,NULL,NULL,NULL,NULL,NULL,NULL,NULL,"<row></row>","E. ramosissimum var. campanulatum Vauch.",,"3",,,,,,"RR : vallée de la Loire, B.-du-Rh.",,,,,,"<span class=\"sci\"><span class=\"gen\">Equisetum</span> <span class=\"sp\">ramosissimum</span> <abbr class=\"type_epithete\" title=\"Variété\">var.</abbr> <span class=\"infra-sp\">campanulatum</span></span>"
"38","38","33","340","Equisetum ramosissimum var. altissimum",,"Equisetum",,"ramosissimum","var.","altissimum",,,,"A. Br.",NULL,NULL,NULL,NULL,NULL,NULL,NULL,NULL,NULL,NULL,NULL,NULL,NULL,NULL,"<row></row>","E. ramosissimum var. altissimum A. Br.",,"3",,,,,,,,,"150-200",,,"<span class=\"sci\"><span class=\"gen\">Equisetum</span> <span class=\"sp\">ramosissimum</span> <abbr class=\"type_epithete\" title=\"Variété\">var.</abbr> <span class=\"infra-sp\">altissimum</span></span>"
"39","39","23","290","Equisetum hiemale",,"Equisetum",,"hiemale",,,,,,"L.",NULL,NULL,NULL,NULL,NULL,NULL,NULL,NULL,NULL,NULL,NULL,NULL,NULL,NULL,"<row></row>","E. hiemale L.",,"4","E0018","Sables humides ombragés","M.-at.","V",,"AR (nul : Bret., Prov. ; RR : Co.) (0-2400 m.)","Circumbor.",,"60-150",,,"<span class=\"sci\"><span class=\"gen\">Equisetum</span> <span class=\"sp\">hiemale</span></span>"
"40","40","23","290","Equisetum trachyodon",,"Equisetum",,"trachyodon",,,,,,"A. Br.",NULL,NULL,NULL,NULL,NULL,NULL,NULL,NULL,NULL,NULL,NULL,NULL,NULL,NULL,"<row></row>","E. trachyodon A. Br.",,"4","E0019","Sables et graviers secs des alluvions","Avril, Jt-at.","V",,"RR. (100-1500 m.)","Boréo-subatl.","Gr. //trachys//, rude, raboteux ; //odόn//, dent","60-150",,,"<span class=\"sci\"><span class=\"gen\">Equisetum</span> <span class=\"sp\">trachyodon</span></span>"
"41","41","23","290","Equisetum variegatum",,"Equisetum",,"variegatum",,,,,,"Schl.",NULL,NULL,NULL,NULL,NULL,NULL,NULL,NULL,NULL,NULL,NULL,NULL,NULL,NULL,"<row></row>","E. variegatum Schl.",,"4","E0020","Sables et graviers humides","Av.-At.","V",,"RR en plaine ; AC : Alp., Pyr. (100-2500 m.)","Circumbor.",,"01/10/30",,,"<span class=\"sci\"><span class=\"gen\">Equisetum</span> <span class=\"sp\">variegatum</span></span>"
"42","40",,"290","Equisetum hiemale x Equisetum variegatum",,,,"Equisetum hiemale x Equisetum variegatum",,,,,,,NULL,NULL,NULL,NULL,NULL,NULL,NULL,NULL,NULL,NULL,NULL,NULL,NULL,NULL,"<row></row>",,,"4",,,,,,,,,,"E. hiemale x variegatum",,"<span class=\"sci\"><span class=\"formule-hyb\"><span class=\"gen\">Equisetum</span> <span class=\"sp\">hiemale</span> x <span class=\"gen\">Equisetum</span> <span class=\"sp\">variegatum</span></span></span>"
"43","43","23","290","Equisetum x noegelianum",,"Equisetum",,"x noegelianum",,,,,,"W. Koch.",NULL,NULL,NULL,NULL,NULL,NULL,NULL,NULL,NULL,NULL,NULL,NULL,NULL,NULL,"<row></row>","x E. Nœgelianum W. Koch.",,"4",,,,,,,,,,"E. hiemale x ramosissimum",,"<span class=\"sci\"><span class=\"gen\">Equisetum</span> <span class=\"hyb\">x <span class=\"sp\">noegelianum</span></span></span>"
"44","44","3","180","Isoetaceae","Isoetaceae",,,,,,,,,,NULL,NULL,NULL,NULL,NULL,NULL,NULL,NULL,NULL,NULL,NULL,NULL,NULL,NULL,"<row></row>","Isoetacees",,"4","F004",,,,,,,,,,,"<span class=\"sci\"><span class=\"supra_gen\">Isoetaceae</span></span>"
"45","45","44","220","Isoetes",,"Isoetes",,,,,,,,"L.",NULL,NULL,NULL,NULL,NULL,NULL,NULL,NULL,NULL,NULL,NULL,NULL,NULL,NULL,"<row></row>","Isoetes L.",,"4","G004",,,,,,,"Gr. //isos//, égal; //étos//, année : toujours vert",,,,"<span class=\"sci\"><span class=\"gen\">Isoetes</span></span>"
"46","46","45","290","Isoetes lacustre",,"Isoetes",,"lacustre",,,,,,"L.",NULL,NULL,NULL,NULL,NULL,NULL,NULL,NULL,NULL,NULL,NULL,NULL,NULL,NULL,"<row></row>","I. lacustre L.",,"5","E0021","Lacs, sur sable et gravier, sous 0,60-2 m. d'eau","Jn-sept.","V",,"R : Vosg., Centre, Pyr.-Or. (600-1300) ; RRR : Finist.","Boréo-atl.",,,,,"<span class=\"sci\"><span class=\"gen\">Isoetes</span> <span class=\"sp\">lacustre</span></span>"
"47","47","45","290","Isoetes brochoni",,"Isoetes",,"brochoni",,,,,,"Motelay",NULL,NULL,NULL,NULL,NULL,NULL,NULL,NULL,NULL,NULL,NULL,NULL,NULL,NULL,"<row></row>","I. Brochoni Motelay",,"5","E0022","Lacs","Jt-sept.","V",,"RRR : Pyr.-Or., Ar. (1840-2200 m.)","Endémique","Dédié au botaniste bordelais Et. Brochon (1833-1896)","03/06/11",,,"<span class=\"sci\"><span class=\"gen\">Isoetes</span> <span class=\"sp\">brochoni</span></span>"
"48","47","45","290","Isoetes echinosporum",,"Isoetes",,"echinosporum",,,,,,"Durieu",NULL,NULL,NULL,NULL,NULL,NULL,NULL,NULL,NULL,NULL,NULL,NULL,NULL,NULL,"<row></row>","I. echinosporum Durieu",,"5","E0023","Lacs","Jt-sept.","V",,"R : Vosg., Mts Dores, Aubrac ; RR : Loire-Inf. (100-1100 m.)","Boréo-atl.","Gr. //echinos//, hérisson ; //spora//, spore","01/05/18",,,"<span class=\"sci\"><span class=\"gen\">Isoetes</span> <span class=\"sp\">echinosporum</span></span>"
"49","49","45","290","Isoetes setaceum",,"Isoetes",,"setaceum",,,,,,"Bosc",NULL,NULL,NULL,NULL,NULL,NULL,NULL,NULL,NULL,NULL,NULL,NULL,NULL,NULL,"<row></row>","I. setaceum Bosc.",,"5","E0024","Bords des mares","Mai","V",,"RRR : Hér., Pyr.-Or., Var. (0-100 m.)","Ibero-médit.",,"01/03/20",,,"<span class=\"sci\"><span class=\"gen\">Isoetes</span> <span class=\"sp\">setaceum</span></span>"
"50","50","45","290","Isoetes boryanum.",,"Isoetes",,"boryanum",,,,,,"Dur",NULL,NULL,NULL,NULL,NULL,NULL,NULL,NULL,NULL,NULL,NULL,NULL,NULL,NULL,"<row></row>","I. Boryanum Dur.",,"5",,"pl. des étangs d'eau douce du Golfe de Gascogne",,,,"RRR : Land., Gir.","Ibéro-atl. S.-E.",,,,,"<span class=\"sci\"><span class=\"gen\">Isoetes</span> <span class=\"sp\">boryanum</span></span>"
"51","51","45","290","Isoetes variabile",,"Isoetes",,"variabile",,,,,,"Legr.",NULL,NULL,NULL,NULL,NULL,NULL,NULL,NULL,NULL,NULL,NULL,NULL,NULL,NULL,"<row></row>","I. variabile Legr.",,"5",,"Étangs du Centre ou litt. médit.",,,,,"Médit. S.-E.",,,,,"<span class=\"sci\"><span class=\"gen\">Isoetes</span> <span class=\"sp\">variabile</span></span>"
"52","52","45","290","Isoetes tenuissimum",,"Isoetes",,"tenuissimum",,,,,,"Bor.",NULL,NULL,NULL,NULL,NULL,NULL,NULL,NULL,NULL,NULL,NULL,NULL,NULL,NULL,"<row></row>","I. tenuissimum Bor.",,"5",,,,,,"RR: Centre",,,"01/10/35",,,"<span class=\"sci\"><span class=\"gen\">Isoetes</span> <span class=\"sp\">tenuissimum</span></span>"
"53","53","45","290","Isoetes velatum",,"Isoetes",,"velatum",,,,,,"A. Br.",NULL,NULL,NULL,NULL,NULL,NULL,NULL,NULL,NULL,NULL,NULL,NULL,NULL,NULL,"<row></row>","I. velatum A. Br.",,"5",,,,,,"Corse",,,"20-40",,,"<span class=\"sci\"><span class=\"gen\">Isoetes</span> <span class=\"sp\">velatum</span></span>"
"54","54","45","290","Isoetes chaboisseaui",,"Isoetes",,"chaboisseaui",,,,,,"Nym.",NULL,NULL,NULL,NULL,NULL,NULL,NULL,NULL,NULL,NULL,NULL,NULL,NULL,NULL,"<row></row>","I. Chaboisseaui Nym.",,"5",,,,,,"Centre",,"Dédié à l'abbé Chaboisseau (1828-1894) de Montmorillon (Vienne)",,,,"<span class=\"sci\"><span class=\"gen\">Isoetes</span> <span class=\"sp\">chaboisseaui</span></span>"
"55","55","45","290","Isoetes violleaui",,"Isoetes",,"violleaui",,,,,,"Hy",NULL,NULL,NULL,NULL,NULL,NULL,NULL,NULL,NULL,NULL,NULL,NULL,NULL,NULL,"<row></row>","I. Violleaui Hy",,"5",,,,,,"RRR : Hte-V.",,"Dédié à l'abbé Violleau (1858-19??), botaniste poitevin",,,,"<span class=\"sci\"><span class=\"gen\">Isoetes</span> <span class=\"sp\">violleaui</span></span>"
"56","56","45","290","Isoetes aspersum",,"Isoetes",,"aspersum",,,,,,"A. Br.",NULL,NULL,NULL,NULL,NULL,NULL,NULL,NULL,NULL,NULL,NULL,NULL,NULL,NULL,"<row></row>","I. aspersum A. Br.",,"5",,,,,,,,"//Aspersus//, saupoudré, spores à peine tuberculeuses",,,,"<span class=\"sci\"><span class=\"gen\">Isoetes</span> <span class=\"sp\">aspersum</span></span>"
"57","57","56","340","Isoetes aspersum var. perreymondi",,"Isoetes",,"aspersum","var.","perreymondi",,,,"A. Br.",NULL,NULL,NULL,NULL,NULL,NULL,NULL,NULL,NULL,NULL,NULL,NULL,NULL,NULL,"<row></row>","I. aspersum A. Br. var. Perreymondi A. Br.",,"5",,,,,,"RRR : Var",,"Dédié à l'inspecteur primaire Perreymond (1794-1843, Fréjus)","06/10/11",,,"<span class=\"sci\"><span class=\"gen\">Isoetes</span> <span class=\"sp\">aspersum</span> <abbr class=\"type_epithete\" title=\"Variété\">var.</abbr> <span class=\"infra-sp\">perreymondi</span></span>"
"58","58","45","290","Isoetes variabile",,"Isoetes",,"variabile",,,,,,"Rouy.",NULL,NULL,NULL,NULL,NULL,NULL,NULL,NULL,NULL,NULL,NULL,NULL,NULL,NULL,"<row></row>","I. variabile Rouy.",,"5","E0025",,"Av.-at.","V",,"RR","Médit.-atl.",,,,,"<span class=\"sci\"><span class=\"gen\">Isoetes</span> <span class=\"sp\">variabile</span></span>"
"59","59","45","290","Isoetes durieui",,"Isoetes",,"durieui",,,,,,"Bory.",NULL,NULL,NULL,NULL,NULL,NULL,NULL,NULL,NULL,NULL,NULL,NULL,NULL,NULL,"<row></row>","I. Durieui Bory.",,"6",,"Pelouses sèches ou humides","Fév.-jn.","V",,"RR : Départs médit. ; Co. (0-100 m.)","W-médlit.",,"4-15 [8-10]",,,"<span class=\"sci\"><span class=\"gen\">Isoetes</span> <span class=\"sp\">durieui</span></span>"
"60","60","45","290","Isoetes delalandei",,"Isoetes",,"delalandei",,,,,,"Lloyd.",NULL,NULL,NULL,NULL,NULL,NULL,NULL,NULL,NULL,NULL,NULL,NULL,NULL,NULL,"<row></row>","I. Delalandei Lloyd.",,"6",,"pelouses sèches, surtout maritimes",,,,"RR :Ouest, Var, Alp.-Mar. : S.-E",,"Dédié à l'abbé Delalande (1807-1851) botaniste français",,,,"<span class=\"sci\"><span class=\"gen\">Isoetes</span> <span class=\"sp\">delalandei</span></span>"
"61","61","45","290","Isoetes siculum",,"Isoetes",,"siculum",,,,,,"Todaro",NULL,NULL,NULL,NULL,NULL,NULL,NULL,NULL,NULL,NULL,NULL,NULL,NULL,NULL,"<row></row>","I. siculum Todaro",,"6",,"pelouses humides",,,,"RR : Vi., Gir., Var, Alp.-Mar., Co. : S.-E",,,,,,"<span class=\"sci\"><span class=\"gen\">Isoetes</span> <span class=\"sp\">siculum</span></span>"
"62","62","45","290","Isoetes hystrix",,"Isoetes",,"hystrix",,,,,,"Durieu.",NULL,NULL,NULL,NULL,NULL,NULL,NULL,NULL,NULL,NULL,NULL,NULL,NULL,NULL,"<row></row>","I. Hystrix Durieu.",,"6","E0027",,"Mrs-jn.","V",,,"W-médit.-atl.",,,,,"<span class=\"sci\"><span class=\"gen\">Isoetes</span> <span class=\"sp\">hystrix</span></span>"
"63","63","2","80","Pteridophytes","Pteridophytes",,,,,,,,,,NULL,NULL,NULL,NULL,NULL,NULL,NULL,NULL,NULL,NULL,NULL,NULL,NULL,NULL,"<row></row>","Fougères","Fougères, Filicinées","6",,,,,,,,,,,,"<span class=\"sci\"><span class=\"supra_gen\">Pteridophytes</span></span>"
"64","64","63","180","Ophioglossaceae","Ophioglossaceae",,,,,,,,,,NULL,NULL,NULL,NULL,NULL,NULL,NULL,NULL,NULL,NULL,NULL,NULL,NULL,NULL,"<row></row>","Ophioglossacees",,"6","F005",,,,,,,,,,,"<span class=\"sci\"><span class=\"supra_gen\">Ophioglossaceae</span></span>"
"65","65","64","220","Ophioglossum",,"Ophioglossum",,,,,,,,"L.",NULL,NULL,NULL,NULL,NULL,NULL,NULL,NULL,NULL,NULL,NULL,NULL,NULL,NULL,"<row></row>","Ophioglossum L.","Langue de serpent, Herbe sans couture, Ophioglosse",,,,,,,,,"Gr. //ophis//, serpent ; //glôssa//, langue",,,,"<span class=\"sci\"><span class=\"gen\">Ophioglossum</span></span>"
"66","66","65","290","Ophioglossum alpinum",,"Ophioglossum",,"alpinum",,,,,,"Ry",NULL,NULL,NULL,NULL,NULL,NULL,NULL,NULL,NULL,NULL,NULL,NULL,NULL,NULL,"<row></row>","O. alpinum Ry",,"6","E0028","Pelouses sèches","Jn-jt.","V",,"RRR : H.-Alp.","Endémique. W-alp.",,"04/06/11",,,"<span class=\"sci\"><span class=\"gen\">Ophioglossum</span> <span class=\"sp\">alpinum</span></span>"
"67","67","65","290","Ophioglossum vulgatum",,"Ophioglossum",,"vulgatum",,,,,,"L.",NULL,NULL,NULL,NULL,NULL,NULL,NULL,NULL,NULL,NULL,NULL,NULL,NULL,NULL,"<row></row>","O. vulgatum L.",,"6","E0029","Prairies humides","M.-jn.","V",,"C. (R : Est, Pyr. ; RR: Co.). (0-1100 m.)","Pseudatl.-circumbor.",,"01/10/30",,,"<span class=\"sci\"><span class=\"gen\">Ophioglossum</span> <span class=\"sp\">vulgatum</span></span>"
"68","68","67","340","Ophioglossum vulgatum var. polyphyllum",,"Ophioglossum",,"vulgatum","var.","polyphyllum",,,,"A. Br.",NULL,NULL,NULL,NULL,NULL,NULL,NULL,NULL,NULL,NULL,NULL,NULL,NULL,NULL,"<row></row>","O. vulgatum var. polyphyllum A. Br.",,"6",,,,,,"RR et souvent stérile ; surtout W.",,,"04/10/11",,,"<span class=\"sci\"><span class=\"gen\">Ophioglossum</span> <span class=\"sp\">vulgatum</span> <abbr class=\"type_epithete\" title=\"Variété\">var.</abbr> <span class=\"infra-sp\">polyphyllum</span></span>"
"69","68","65","220","Ophioglossum lusitanicum",,"Ophioglossum",,"lusitanicum",,,,,,"L.",NULL,NULL,NULL,NULL,NULL,NULL,NULL,NULL,NULL,NULL,NULL,NULL,NULL,NULL,"<row></row>","O. Lusitanicum L.",,"6","E0030","Coteaux maritimes","At-déc.","V",,"W. et Provence","Médit.-atl.",,,,,"<span class=\"sci\"><span class=\"gen\">Ophioglossum</span> <span class=\"sp\">lusitanicum</span></span>"
"70","70","64","220","Botrychium",,"Botrychium",,,,,,,,"(L.) Sw.",NULL,NULL,NULL,NULL,NULL,NULL,NULL,NULL,NULL,NULL,NULL,NULL,NULL,NULL,"<row></row>","Botrychium (L.) Sw.",,,,,,,,,,"Gr. //botrys//, grappe ; //botrychion//, petite grappe",,,,"<span class=\"sci\"><span class=\"gen\">Botrychium</span></span>"
"71","71","70","290","Botrychium simplex",,"Botrychium",,"simplex",,,,,,"Hitchc.",NULL,NULL,NULL,NULL,NULL,NULL,NULL,NULL,NULL,NULL,NULL,NULL,NULL,NULL,"<row></row>","B. simplex Hitchc.",,"7","E0031","Pelouses humides","Jn-at.","V",,"RRR (Hte-Sav., Loiret. Co.), (100-2400 m.)","Arct-alp.",,"01/02/15",,,"<span class=\"sci\"><span class=\"gen\">Botrychium</span> <span class=\"sp\">simplex</span></span>"
"72","72","70","290","Botrychium lunaria",,"Botrychium",,"lunaria",,,,,,"(L.) Sw.",NULL,NULL,NULL,NULL,NULL,NULL,NULL,NULL,NULL,NULL,NULL,NULL,NULL,NULL,"<row></row>","B. Lunaria (L.) Sw.",,"7","E0032","Pelouses sèches","At-déc.","V",,"R en plaine, AC en mont. (0-2500 m.)","Oroph. subcosm.","Du latin //luna//, lune, de la forme des lobes","01/05/30",,,"<span class=\"sci\"><span class=\"gen\">Botrychium</span> <span class=\"sp\">lunaria</span></span>"
"73","73","5","290","Lycopodium annotinum",,"Lycopodium",,"annotinum",,,,,,"L.",NULL,NULL,NULL,NULL,NULL,NULL,NULL,NULL,NULL,NULL,NULL,NULL,NULL,NULL,"<row></row>","L. annotinum L.",,"1","E0004","Bois (Sapin et Epicéa)","Jn-at.","V",,"AR : (350-2400 m.). Est, Centre","Circumbor.",,"30-60",,,"<span class=\"sci\"><span class=\"gen\">Lycopodium</span> <span class=\"sp\">annotinum</span></span>"
"74","74","70","290","Botrychium ramosum",,"Botrychium",,"ramosum",,,,,,"(Roth) Asch.",NULL,NULL,NULL,NULL,NULL,NULL,NULL,NULL,NULL,NULL,NULL,NULL,NULL,NULL,"<row></row>","B. ramosum (Roth) Asch.",,"7","E0033","Pelouses","Été","V",,"RR (Hte-Sav., Vosg., Loire, Hte-Loire). (0-1800 m.)","Arct-alp.",,"01/05/20",,,"<span class=\"sci\"><span class=\"gen\">Botrychium</span> <span class=\"sp\">ramosum</span></span>"
"75","74",,"290","Botrychium matricariaefolium",,"Botrychium",,"matricariaefolium",,,,,,"R. Br.",NULL,NULL,NULL,NULL,NULL,NULL,NULL,NULL,NULL,NULL,NULL,NULL,NULL,NULL,"<row></row>","B. matricariæfolium R. Br.",,"7",,,,,,,,,,,,"<span class=\"sci\"><span class=\"gen\">Botrychium</span> <span class=\"sp\">matricariaefolium</span></span>"
"76","74",,"290","Botrychium rutaceum",,"Botrychium",,"rutaceum",,,,,,"Willd.",NULL,NULL,NULL,NULL,NULL,NULL,NULL,NULL,NULL,NULL,NULL,NULL,NULL,NULL,"<row></row>","B. rutaceum Willd.",,"7",,,,,,,,,,,,"<span class=\"sci\"><span class=\"gen\">Botrychium</span> <span class=\"sp\">rutaceum</span></span>"
"77","77","70","290","Botrychium lanceolatum",,"Botrychium",,"lanceolatum",,,,,,"(Gmel.) Angström.",NULL,NULL,NULL,NULL,NULL,NULL,NULL,NULL,NULL,NULL,NULL,NULL,NULL,NULL,"<row></row>","B. lanceolatum (Gmel.) Angström.",,"7","E0034","Pelouses","Été","V",,"RRR (Hte-Sav.) (3000-4000 m.)","Arct.-alp.",,"01/05/20",,,"<span class=\"sci\"><span class=\"gen\">Botrychium</span> <span class=\"sp\">lanceolatum</span></span>"
"78","78","70","290","Botrychium matricariae",,"Botrychium",,"matricariae",,,,,,"(Schk.) Spreng.",NULL,NULL,NULL,NULL,NULL,NULL,NULL,NULL,NULL,NULL,NULL,NULL,NULL,NULL,"<row></row>","B. Matricariæ (Schk.) Spreng.",,"7","E0035","Pâturages","Été","V",,"RRR (Vosg., Hte-Sav., Loire). (700-1600 m.)","Arct-alp.","À feuille de Matricaire","01/06/20",,,"<span class=\"sci\"><span class=\"gen\">Botrychium</span> <span class=\"sp\">matricariae</span></span>"
"79","78",,"290","Botrychium matricariodes",,"Botrychium",,"matricariodes",,,,,,"Willd.",NULL,NULL,NULL,NULL,NULL,NULL,NULL,NULL,NULL,NULL,NULL,NULL,NULL,NULL,"<row></row>","B. matricariodes Willd.",,"7",,,,,,,,,,,,"<span class=\"sci\"><span class=\"gen\">Botrychium</span> <span class=\"sp\">matricariodes</span></span>"
"80","80","70","290","Botrychium virginianum",,"Botrychium",,"virginianum",,,,,,"(L.) Sw.",NULL,NULL,NULL,NULL,NULL,NULL,NULL,NULL,NULL,NULL,NULL,NULL,NULL,NULL,"<row></row>","B. Virginianum (L.) Sw.",,"7","E0035 bis","Bois et prairies",,,,,"Subalp.","De Virginie. Plante trouvée d'abord en Amérique ; existe en Eurasie boréale.","01/10/80",,,"<span class=\"sci\"><span class=\"gen\">Botrychium</span> <span class=\"sp\">virginianum</span></span>"
"81","81","63","180","Hymenophyllaceae","Hymenophyllaceae",,,,,,,,,,NULL,NULL,NULL,NULL,NULL,NULL,NULL,NULL,NULL,NULL,NULL,NULL,NULL,NULL,"<row></row>","Hymenophyllacees",,"7","F006",,,,,,,,,,,"<span class=\"sci\"><span class=\"supra_gen\">Hymenophyllaceae</span></span>"
"82",,,"220","Hymenophyllum",,"Hymenophyllum",,,,,,,,"Sm.",NULL,NULL,NULL,NULL,NULL,NULL,NULL,NULL,NULL,NULL,NULL,NULL,NULL,NULL,"<row></row>","Hymenophyllum Sm.",,"7","G007",,,,,,,"Gr. //hymên//, membrane mince, //phyllon//, feuilles : flles très minces",,,,"<span class=\"sci\"><span class=\"gen\">Hymenophyllum</span></span>"
"83","83","82","290","Hymenophyllum tunbridgense",,"Hymenophyllum",,"tunbridgense",,,,,,"(L.) Sm.",NULL,NULL,NULL,NULL,NULL,NULL,NULL,NULL,NULL,NULL,NULL,NULL,NULL,NULL,"<row></row>","H. Tunbridgense (L.) Sm.",,"7","E0036",,"Jt-nov.","V",,"RRR (W., H.-Pyr., Vosg., Co) (0-625 m.)","Subatl.","De Tunbridge, au S.-E. de Londres, où la pl. fut observée pour la premiére fois.","03/12/11",,,"<span class=\"sci\"><span class=\"gen\">Hymenophyllum</span> <span class=\"sp\">tunbridgense</span></span>"
"84","84","82","290","Hymenophyllum unilaterale",,"Hymenophyllum",,"unilaterale",,,,,,"Sw.",NULL,NULL,NULL,NULL,NULL,NULL,NULL,NULL,NULL,NULL,NULL,NULL,NULL,NULL,"<row></row>","H. unilaterale Sw.",,"7","E0036 bis",,"Jt-nov.","V",,"RRR (Fin., Man.)",,,,,,"<span class=\"sci\"><span class=\"gen\">Hymenophyllum</span> <span class=\"sp\">unilaterale</span></span>"
"85","84",,"290","Hymenophyllum peltatum",,"Hymenophyllum",,"peltatum",,,,,,"Poir.",NULL,NULL,NULL,NULL,NULL,NULL,NULL,NULL,NULL,NULL,NULL,NULL,NULL,NULL,"<row></row>","H. peltatum Poir.",,"7",,,,,,,,,,,,"<span class=\"sci\"><span class=\"gen\">Hymenophyllum</span> <span class=\"sp\">peltatum</span></span>"
"86",,,"220","Trichomanes",,"Trichomanes",,,,,,,,"L.",NULL,NULL,NULL,NULL,NULL,NULL,NULL,NULL,NULL,NULL,NULL,NULL,NULL,NULL,"<row></row>","Trichomanes L.",,"7","G008",,,,,,,"Gr. //thrix//, cheveu, //mania//, manie : lobes nombreux et fins",,,,"<span class=\"sci\"><span class=\"gen\">Trichomanes</span></span>"
"87","87","86","290","Trichomanes radicans",,"Trichomanes",,"radicans",,,,,,"Sw.",NULL,NULL,NULL,NULL,NULL,NULL,NULL,NULL,NULL,NULL,NULL,NULL,NULL,NULL,"<row></row>","T. radicans Sw.",,"7","E0037","Sur permien","M.-sept.","V",,"RRR (B.-Pyr.)","Atl.",,"01/10/35",,,"<span class=\"sci\"><span class=\"gen\">Trichomanes</span> <span class=\"sp\">radicans</span></span>"
"88","88","63","180","Osmondaceae","Osmondaceae",,,,,,,,,,NULL,NULL,NULL,NULL,NULL,NULL,NULL,NULL,NULL,NULL,NULL,NULL,NULL,NULL,"<row></row>","Osmondacees",,"7","F007",,,,,,,,,,,"<span class=\"sci\"><span class=\"supra_gen\">Osmondaceae</span></span>"
"89","89","88","220","Osmunda",,"Osmunda",,,,,,,,"L.",NULL,NULL,NULL,NULL,NULL,NULL,NULL,NULL,NULL,NULL,NULL,NULL,NULL,NULL,"<row></row>","Osmunda L.","Osmonde, Fougère royale","7","G009",,,,,,,"Nom donné par De I'Obel ; tiré p.-ê. d'Osmund. divinité saxonne (Thor.) : ou d'//os//, bouche, //mundare//, purifier : propriétés antiputrides",,,,"<span class=\"sci\"><span class=\"gen\">Osmunda</span></span>"
"90","90","89","290","Osmunda regalis",,"Osmunda",,"regalis",,,,,,"L.",NULL,NULL,NULL,NULL,NULL,NULL,NULL,NULL,NULL,NULL,NULL,NULL,NULL,NULL,"<row></row>","O. regalis L.",,"8","E0038","Lieux humides ombragés","Jn-Sept.","V",,"AR (très inégalement répandu) (0-500 m.)","Subcosm., pseudatl.","Lat., royal.","60-150 {400}",,,"<span class=\"sci\"><span class=\"gen\">Osmunda</span> <span class=\"sp\">regalis</span></span>"
"91","91","89","290","Osmunda plumieri",,"Osmunda",,"plumieri",,,,,,"Tausch.",NULL,NULL,NULL,NULL,NULL,NULL,NULL,NULL,NULL,NULL,NULL,NULL,NULL,NULL,"<row></row>","O. Plumieri Tausch.",,"8",,,,,,"Corse",,"Ch. Plumier (1646-1704), religieux minime, Marseillais, fondateur de la Systématique américaine.",,,,"<span class=\"sci\"><span class=\"gen\">Osmunda</span> <span class=\"sp\">plumieri</span></span>"
"92","92","90","340","Osmunda regalis var. pumila",,"Osmunda",,"regalis","var.","pumila",,,,"Milde",NULL,NULL,NULL,NULL,NULL,NULL,NULL,NULL,NULL,NULL,NULL,NULL,NULL,NULL,"<row></row>","O. regalis var. pumila Milde",,"8",,,,,,,,,"20-30",,,"<span class=\"sci\"><span class=\"gen\">Osmunda</span> <span class=\"sp\">regalis</span> <abbr class=\"type_epithete\" title=\"Variété\">var.</abbr> <span class=\"infra-sp\">pumila</span></span>"
"93","93","63","180","Polypodiaceae","Polypodiaceae",,,,,,,,,,NULL,NULL,NULL,NULL,NULL,NULL,NULL,NULL,NULL,NULL,NULL,NULL,NULL,NULL,"<row></row>","Polypodiacees",,"8","F008",,,,,,,,,,,"<span class=\"sci\"><span class=\"supra_gen\">Polypodiaceae</span></span>"
"94","94","93","220","Gymnogramme",,"Gymnogramme",,,,,,,,"Desv.",NULL,NULL,NULL,NULL,NULL,NULL,NULL,NULL,NULL,NULL,NULL,NULL,NULL,NULL,"<row></row>","Gymnogramme Desv.",,"9","G010",,,,,,,"Gr. //gymnos//, nu, //grammé//, ligne : sores sans indusie",,,,"<span class=\"sci\"><span class=\"gen\">Gymnogramme</span></span>"
"95","95","94","290","Gymnogramme leptophylla",,"Gymnogramme",,"leptophylla",,,,,,"(L.) Desv.",NULL,NULL,NULL,NULL,NULL,NULL,NULL,NULL,NULL,NULL,NULL,NULL,NULL,NULL,"<row></row>","G. leptophylla (L.) Desv.",,"9","E0039","Rochers et murs humides","Av.-jn.","Ann. / 2-ann.",,"R (Midi. W.) ou RR (Sav., Cév., Hte-V., Corr., Co.) (0-500 m.)","Cosm. subtrop.","Gr. //leptos//, grêle, mince. //phyllon//. feuille.","01/05/20",,,"<span class=\"sci\"><span class=\"gen\">Gymnogramme</span> <span class=\"sp\">leptophylla</span></span>"
"96","95",,"290","Grammitis leptophylla",,"Grammitis",,"leptophylla",,,,,,"Sw.",NULL,NULL,NULL,NULL,NULL,NULL,NULL,NULL,NULL,NULL,NULL,NULL,NULL,NULL,"<row></row>","Grammitis leptophylla Sw.",,"9",,,,,,,,,,,,"<span class=\"sci\"><span class=\"gen\">Grammitis</span> <span class=\"sp\">leptophylla</span></span>"
"97","97","94","290","Gymnogramme totta",,"Gymnogramme",,"totta",,,,,,"(Willd.) Schlecht.",NULL,NULL,NULL,NULL,NULL,NULL,NULL,NULL,NULL,NULL,NULL,NULL,NULL,NULL,"<row></row>","G. Totta (Willd.) Schlecht.",,"9","E0039 bis",,,,,"Espagne, près de la frontière française","Paléotrop.",,"01/10/30",,,"<span class=\"sci\"><span class=\"gen\">Gymnogramme</span> <span class=\"sp\">totta</span></span>"
"98","97",,"290","Dryopteris africana",,"Dryopteris",,"africana",,,,,,"Chrsn",NULL,NULL,NULL,NULL,NULL,NULL,NULL,NULL,NULL,NULL,NULL,NULL,NULL,NULL,"<row></row>","Dryopteris Africana Chrsn",,,,,,,,,,,,,,"<span class=\"sci\"><span class=\"gen\">Dryopteris</span> <span class=\"sp\">africana</span></span>"
"99","99","93","220","Cheilanthes",,"Cheilanthes",,,,,,,,"Sw.",NULL,NULL,NULL,NULL,NULL,NULL,NULL,NULL,NULL,NULL,NULL,NULL,NULL,NULL,"<row></row>","Cheilanthes Sw.",,"9","G011",,,,,,,"Gr. //cheilos//, lèvre, //anthes//, fleuri : sores bordant les lobes",,,,"<span class=\"sci\"><span class=\"gen\">Cheilanthes</span></span>"
"100","100","99","290","Cheilanthes fragrans",,"Cheilanthes",,"fragrans",,,,,,"(L.) Webb. & B.",NULL,NULL,NULL,NULL,NULL,NULL,NULL,NULL,NULL,NULL,NULL,NULL,NULL,NULL,"<row></row>","C. fragrans (L.) Webb. et B.",,"10","E0040","Rochers et murs siliceux","Fév.-jt.","V",,"RR (Midi, Pyr., Cév.) (0-500 m.)","Paléosubtrop.",,"01/06/20",,,"<span class=\"sci\"><span class=\"gen\">Cheilanthes</span> <span class=\"sp\">fragrans</span></span>"
"101","101","99","290","Cheilanthes madeirensis",,"Cheilanthes",,"madeirensis",,,,,,"Lowe",NULL,NULL,NULL,NULL,NULL,NULL,NULL,NULL,NULL,NULL,NULL,NULL,NULL,NULL,"<row></row>","C. Madeirensis Lowe",,"9",,,,,,"Co.",,"Lat., de Madère",,,,"<span class=\"sci\"><span class=\"gen\">Cheilanthes</span> <span class=\"sp\">madeirensis</span></span>"
"102","100",,"290","Cheilanthes odorata",,"Cheilanthes",,"odorata",,,,,,"Sw.",NULL,NULL,NULL,NULL,NULL,NULL,NULL,NULL,NULL,NULL,NULL,NULL,NULL,NULL,"<row></row>","C. odorata Sw.",,"10",,,,,,,,,,,,"<span class=\"sci\"><span class=\"gen\">Cheilanthes</span> <span class=\"sp\">odorata</span></span>"
"103","103","93","220","Nothochlaena",,"Nothochlaena",,,,,,,,"R. Br.",NULL,NULL,NULL,NULL,NULL,NULL,NULL,NULL,NULL,NULL,NULL,NULL,NULL,NULL,"<row></row>","Nothochlæna R. Br.",,"10","G012",,,,,,,"Gr. //nothos//, bâtard, //chlaina//, manteau : indusie remplacée par des écailles",,,,"<span class=\"sci\"><span class=\"gen\">Nothochlaena</span></span>"
"104","104","103","290","Nothochlaena marantæ",,"Nothochlaena",,"marantæ",,,,,,"(L.) R. Br.",NULL,NULL,NULL,NULL,NULL,NULL,NULL,NULL,NULL,NULL,NULL,NULL,NULL,NULL,"<row></row>","N. Marantæ (L.) R. Br.",,"10","E0041","Roches éruptives et primaires, serpentlnes, ombragèes","Été","V",,"RR (Midi, Hte-V., Cant., Co)","Paléosubtrop.","B. Maranta, médecin vénitien du XVIᵉ s., qui décrivit le premier cette espèce","01/10/30",,,"<span class=\"sci\"><span class=\"gen\">Nothochlaena</span> <span class=\"sp\">marantæ</span></span>"
"105","105","103","290","Nothochlaena vellea",,"Nothochlaena",,"vellea",,,,,,"(Ait.) R. Br.",NULL,NULL,NULL,NULL,NULL,NULL,NULL,NULL,NULL,NULL,NULL,NULL,NULL,NULL,"<row></row>","N. vellea (Ait.) R. Br.",,"10","E0042","Rocherssiliceux ombragés","Hiv.","V",,"RRR (Pyr.-Or. : Banyuls ; Co. : Ajaccio)","Paléosubtrop.","Lat. //vellus//, toison ; //velleus//, laineux","01/05/15",,,"<span class=\"sci\"><span class=\"gen\">Nothochlaena</span> <span class=\"sp\">vellea</span></span>"
"106","105",,"290","Nothochlaena lanuginosa",,"Nothochlaena",,"lanuginosa",,,,,,"Desv.",NULL,NULL,NULL,NULL,NULL,NULL,NULL,NULL,NULL,NULL,NULL,NULL,NULL,NULL,"<row></row>","N. lanuginosa Desv.",,"10",,,,,,,,,,,,"<span class=\"sci\"><span class=\"gen\">Nothochlaena</span> <span class=\"sp\">lanuginosa</span></span>"
"107","107","93","220","Woodsia",,"Woodsia",,,,,,,,"R. Br.",NULL,NULL,NULL,NULL,NULL,NULL,NULL,NULL,NULL,NULL,NULL,NULL,NULL,NULL,"<row></row>","Woodsia R. Br.",,"10","G013",,,,,,,"Dédié à J. Woods, botaniste anglais, 1776-1864",,,,"<span class=\"sci\"><span class=\"gen\">Woodsia</span></span>"
"108","108","107","290","Woodsia ilvensis",,"Woodsia",,"ilvensis",,,,,,"(L.) R. Br.",NULL,NULL,NULL,NULL,NULL,NULL,NULL,NULL,NULL,NULL,NULL,NULL,NULL,NULL,"<row></row>","W. Ilvensis (L.) R. Br.",,"10","E0043","Silice","Jt-sept.","V",,"(600-260 m.)","Circumboréo-alp.","//Ilva//, ancien nom de l'île d'Elbe ; qualification née d'une erreur : la pl. n'y existe pas",,,,"<span class=\"sci\"><span class=\"gen\">Woodsia</span> <span class=\"sp\">ilvensis</span></span>"
"109","109","107","290","Woodsia alpina",,"Woodsia",,"alpina",,,,,,"Gr.",NULL,NULL,NULL,NULL,NULL,NULL,NULL,NULL,NULL,NULL,NULL,NULL,NULL,NULL,"<row></row>","W. alpina Gr.",,"10",,,,,,"RR (Alp., Pyr., Cant.)",,,"01/05/15",,,"<span class=\"sci\"><span class=\"gen\">Woodsia</span> <span class=\"sp\">alpina</span></span>"
"110","110","107","290","Woodsia rufidula",,"Woodsia",,"rufidula",,,,,,"Mchx.",NULL,NULL,NULL,NULL,NULL,NULL,NULL,NULL,NULL,NULL,NULL,NULL,NULL,NULL,"<row></row>","W. rufidula Mchx.",,"10",,,,,"Granit, basalte, phonolite","RRR (Hte-Sav.)",,,"01/10/20",,,"<span class=\"sci\"><span class=\"gen\">Woodsia</span> <span class=\"sp\">rufidula</span></span>"
"111","111","107","290","Woodsia glabella",,"Woodsia",,"glabella",,,,,,"R. Br.",NULL,NULL,NULL,NULL,NULL,NULL,NULL,NULL,NULL,NULL,NULL,NULL,NULL,NULL,"<row></row>","W. glabella R. Br.",,"10","E0043 bis",,,,,"RRRR et peu connu",,,"02/11/11",,,"<span class=\"sci\"><span class=\"gen\">Woodsia</span> <span class=\"sp\">glabella</span></span>"
"112","112","93","220","Cystopteris",,"Cystopteris",,,,,,,,"Bernh.",NULL,NULL,NULL,NULL,NULL,NULL,NULL,NULL,NULL,NULL,NULL,NULL,NULL,NULL,"<row></row>","Cystopteris Bernh.",,"10","G014",,,,,,,"Gr. //cystis//, vessie, //pteris//, fougère: indusie renflée en petite vessie",,,,"<span class=\"sci\"><span class=\"gen\">Cystopteris</span></span>"
"113","113","112","290","Cystopteris montana",,"Cystopteris",,"montana",,,,,,"(Lmk) Link.",NULL,NULL,NULL,NULL,NULL,NULL,NULL,NULL,NULL,NULL,NULL,NULL,NULL,NULL,"<row></row>","C. montana (Lmk) Link.",,"10","E0044","Éboulis. rochers calcaires","Été","V",,"RR (Jura, Sav., Dauph., Pyr.). (900-2300 m.)","Boréo-alp.",,"01/10/45",,,"<span class=\"sci\"><span class=\"gen\">Cystopteris</span> <span class=\"sp\">montana</span></span>"
"114","114","112","290","Cystopteris fragilis",,"Cystopteris",,"fragilis",,,,,,"(L.) Bernh.",NULL,NULL,NULL,NULL,NULL,NULL,NULL,NULL,NULL,NULL,NULL,NULL,NULL,NULL,"<row></row>","C. fragilis (L.) Bernh.",,"10","E0045","Rochers, murs. éboulis","Été","V",,,"Cosm.",,"30-40",,,"<span class=\"sci\"><span class=\"gen\">Cystopteris</span> <span class=\"sp\">fragilis</span></span>"
"115","115","112","290","Cystopteris eu-fragilis",,"Cystopteris",,"eu-fragilis",,,,,,"Asch.-Gr.",NULL,NULL,NULL,NULL,NULL,NULL,NULL,NULL,NULL,NULL,NULL,NULL,NULL,NULL,"<row></row>","C. eu-fragilis Asch.-Gr.",,"10",,,,,,"AC de 0-600 m. : S.-E.",,,"01/10/40",,,"<span class=\"sci\"><span class=\"gen\">Cystopteris</span> <span class=\"sp\">eu-fragilis</span></span>"
"116","116","114","340","Cystopteris fragilis var. huteri",,"Cystopteris",,"fragilis","var.","huteri",,,,"Milde",NULL,NULL,NULL,NULL,NULL,NULL,NULL,NULL,NULL,NULL,NULL,NULL,NULL,NULL,"<row></row>","C. fragilis (L.) Bernh. var. Huteri Milde",,"10",,,,,,"RRR (Mt Cenis, La Salette)",,"Dédié à l'abbé Huter (1834-?) botaniste du Tirol",,,,"<span class=\"sci\"><span class=\"gen\">Cystopteris</span> <span class=\"sp\">fragilis</span> <abbr class=\"type_epithete\" title=\"Variété\">var.</abbr> <span class=\"infra-sp\">huteri</span></span>"
"117","117","112","290","Cystopteris regia",,"Cystopteris",,"regia",,,,,,"(L.) Desv.",NULL,NULL,NULL,NULL,NULL,NULL,NULL,NULL,NULL,NULL,NULL,NULL,NULL,NULL,"<row></row>","C. regia (L.) Desv.",,"10",,,,,"préf. calc.","AC dans Alp., Jura, Auv., Pyr. (1200-2500 m.)",,,"30-40",,,"<span class=\"sci\"><span class=\"gen\">Cystopteris</span> <span class=\"sp\">regia</span></span>"
"118","118","93","220","x Asplenicystopteris",,"x Asplenicystopteris",,,,,,,,"P.Fournier",NULL,NULL,NULL,NULL,NULL,NULL,NULL,NULL,NULL,NULL,NULL,NULL,NULL,NULL,"<row></row>","× Asplenicystopteris",,"10",,,,,,,,,,,,"<span class=\"sci\"><span class=\"hyb\">x <span class=\"gen\">Asplenicystopteris</span></span></span>"
"119","119","119","290","x Asplenicystopteris blindi",,"x Asplenicystopteris",,"blindi",,,,,,"(Parm.) P. Fourn.",NULL,NULL,NULL,NULL,NULL,NULL,NULL,NULL,NULL,NULL,NULL,NULL,NULL,NULL,"<row></row>","× Asplenicystopteris Blindi (Parm.) P. Fourn.",,"10",,,,,,"Jura (Azans)",,,,"Asplenium Trichomanes x C. fragilis",,"<span class=\"sci\"><span class=\"hyb\">x <span class=\"gen\">Asplenicystopteris</span></span> <span class=\"sp\">blindi</span></span>"
"120","120","118","290","x Asplenicystopteris payoti",,"x Asplenicystopteris",,"payoti",,,,,,"P. Fourn.",NULL,NULL,NULL,NULL,NULL,NULL,NULL,NULL,NULL,NULL,NULL,NULL,NULL,NULL,"<row></row>","× Asplenicystopteris Payoti P. Fourn.",,"11",,,,,,"Hte-Sav. (Chamonix)",,,,"Aspl. Adiantum nigrum x C. regia Payot",,"<span class=\"sci\"><span class=\"hyb\">x <span class=\"gen\">Asplenicystopteris</span></span> <span class=\"sp\">payoti</span></span>"
"121","121","93","220","Allosorus",,"Allosorus",,,,,,,,"Bernh.",NULL,NULL,NULL,NULL,NULL,NULL,NULL,NULL,NULL,NULL,NULL,NULL,NULL,NULL,"<row></row>","Allosorus Bernh.",,"11","G015",,,,,,,"Gr. //allos//, autre, //sorus//, fructlfication : feuilles fertiles de forme spéciale",,,,"<span class=\"sci\"><span class=\"gen\">Allosorus</span></span>"
"122","122","121","290","Allosorus crispus",,"Allosorus",,"crispus",,,,,,"(L.) Bernh.",NULL,NULL,NULL,NULL,NULL,NULL,NULL,NULL,NULL,NULL,NULL,NULL,NULL,NULL,"<row></row>","A. crispus (L.) Bernh.",,"11","E0046","Éboulis, rochers siliceux","Été","V",,"C (Alp., Pyr., Vosg., Auv., Co.), de 1000 à 2600 m.","Circumboréo-alp.",,"15-30",,,"<span class=\"sci\"><span class=\"gen\">Allosorus</span> <span class=\"sp\">crispus</span></span>"
"123","123","93","220","Onoclea",,"Onoclea",,,,,,,,"L.",NULL,NULL,NULL,NULL,NULL,NULL,NULL,NULL,NULL,NULL,NULL,NULL,NULL,NULL,"<row></row>","Onoclea L.",,"11","G016",,,,,,,"Nom grec d'une plante inconnue",,,,"<span class=\"sci\"><span class=\"gen\">Onoclea</span></span>"
"124","123",,"220","Struthiopteris",,"Struthiopteris",,,,,,,,"Willd.",NULL,NULL,NULL,NULL,NULL,NULL,NULL,NULL,NULL,NULL,NULL,NULL,NULL,NULL,"<row></row>","Struthiopteris Willd.",,"11",,,,,,,,"Gr. //struthion//, autruche, //pteris//, fougère : frondes fertiles semblables à une plume d'autruche",,,,"<span class=\"sci\"><span class=\"gen\">Struthiopteris</span></span>"
"125","125","123","290","Onoclea struthiopteris",,"Onoclea",,"struthiopteris",,,,,,"(L.) Hoffm.",NULL,NULL,NULL,NULL,NULL,NULL,NULL,NULL,NULL,NULL,NULL,NULL,NULL,NULL,"<row></row>","O. Struthiopteris (L.) Hoffm.",,"11","E0046 bis","Cultivé","Été","V","Préf. calc.","Belgique, Italie (Mt Viso), natur. dans les Vosges.","Circumboréo-alp.",,"30-150",,,"<span class=\"sci\"><span class=\"gen\">Onoclea</span> <span class=\"sp\">struthiopteris</span></span>"
"126","125","124","290","Struthiopteris germanica",,"Struthiopteris",,"germanica",,,,,,"Willd.",NULL,NULL,NULL,NULL,NULL,NULL,NULL,NULL,NULL,NULL,NULL,NULL,NULL,NULL,"<row></row>","S. Germanica Willd.",,"11",,,,,,,,,,,,"<span class=\"sci\"><span class=\"gen\">Struthiopteris</span> <span class=\"sp\">germanica</span></span>"
"127","127","93","220","Ceterach",,"Ceterach",,,,,,,,"(L.) Willd.",NULL,NULL,NULL,NULL,NULL,NULL,NULL,NULL,NULL,NULL,NULL,NULL,NULL,NULL,"<row></row>","Ceterach (L.) Willd.","Doradille, Herbe dorée","11","G017",,,,,,,"Nom arabe ?",,,,"<span class=\"sci\"><span class=\"gen\">Ceterach</span></span>"
"128","128","127","290","Ceterach officinarum",,"Ceterach",,"officinarum",,,,,,"Willd.",NULL,NULL,NULL,NULL,NULL,NULL,NULL,NULL,NULL,NULL,NULL,NULL,NULL,NULL,"<row></row>","C. officinarum Willd.",,"11","E0047","Vieux murs, rochers ensoleillés","Été","V","Calciphile dans le N., calcifuge (?) dans le ","C dans la région de la Vigne, R en dehors. (0-2000 m.)","Euras.-temp.","Lat. //officina//, pharmacie ; //ofﬁcinarum//, des apothicaires ; Ia pl. était autrefois utilisée en médecine","01/05/20",,,"<span class=\"sci\"><span class=\"gen\">Ceterach</span> <span class=\"sp\">officinarum</span></span>"
"129",,,"220","Blechnum",,"Blechnum",,,,,,,,"L.",NULL,NULL,NULL,NULL,NULL,NULL,NULL,NULL,NULL,NULL,NULL,NULL,NULL,NULL,"<row></row>","Blechnum L.",,"11","G018",,,,,,,"Gr. //blechnon//, fougère",,,,"<span class=\"sci\"><span class=\"gen\">Blechnum</span></span>"
"130","130","129","290","Blechnum spicant",,"Blechnum",,"spicant",,,,,,"(L.) Withg.",NULL,NULL,NULL,NULL,NULL,NULL,NULL,NULL,NULL,NULL,NULL,NULL,NULL,NULL,"<row></row>","B. Spicant (L.) Withg.",,"11","E0048","Bois siliceux humides","Été","V",,"AR. (0-2400 m. ; montagnard dans le Midi)","Circumbor.","Sens inconnu","15-50",,,"<span class=\"sci\"><span class=\"gen\">Blechnum</span> <span class=\"sp\">spicant</span></span>"
"131","129",,"220","Lomaria",,"Lomaria",,,,,,,,"Desv.",NULL,NULL,NULL,NULL,NULL,NULL,NULL,NULL,NULL,NULL,NULL,NULL,NULL,NULL,"<row></row>","Lomaria Desv.",,"11",,,,,,,,,,,,"<span class=\"sci\"><span class=\"gen\">Lomaria</span></span>"
"132","132","93","220","Scolopendrium",,"Scolopendrium",,,,,,,,"(L.) Sm.",NULL,NULL,NULL,NULL,NULL,NULL,NULL,NULL,NULL,NULL,NULL,NULL,NULL,NULL,"<row></row>","Scolopendrium (L.) Sm.","Scolopendre, Langue-de-Cerf","11","G019",,,,,,,"Les fructif. rappellent le scolopendre ou Mille-pieds",,,,"<span class=\"sci\"><span class=\"gen\">Scolopendrium</span></span>"
"133","133","132","290","Scolopendrium vulgare",,"Scolopendrium",,"vulgare",,,,,,"Sm.",NULL,NULL,NULL,NULL,NULL,NULL,NULL,NULL,NULL,NULL,NULL,NULL,NULL,NULL,"<row></row>","S. vulgare Sm.",,"11","E0049","Puits, vieux murs, chemins creux","Été","V","Préf. calc.","C. (0-1800 m.)","Circumbor.",,"30-60",,"Cult.","<span class=\"sci\"><span class=\"gen\">Scolopendrium</span> <span class=\"sp\">vulgare</span></span>"
"134","134","132","290","Scolopendrium hemionitis",,"Scolopendrium",,"hemionitis",,,,,,"Lag. & G. C.",NULL,NULL,NULL,NULL,NULL,NULL,NULL,NULL,NULL,NULL,NULL,NULL,NULL,NULL,"<row></row>","S. Hemionitis Lag. et G. C.",,"11","E0050","Rochers calc.","Av.-M.","V",,"Littoral médlt.","Clrcum-médit.","Nom grec d'une fougère","01/08/20",,,"<span class=\"sci\"><span class=\"gen\">Scolopendrium</span> <span class=\"sp\">hemionitis</span></span>"
"135","135","93","220","Pteris",,"Pteris",,,,,,,,"L.",NULL,NULL,NULL,NULL,NULL,NULL,NULL,NULL,NULL,NULL,NULL,NULL,NULL,NULL,"<row></row>","Pteris L.",,"11","G020",,,,,,,"Gr. //pteris//, fougère ; de //pteron//, aile",,,,"<span class=\"sci\"><span class=\"gen\">Pteris</span></span>"
"136","136","135","290","Pteris cretica",,"Pteris",,"cretica",,,,,,"L.",NULL,NULL,NULL,NULL,NULL,NULL,NULL,NULL,NULL,NULL,NULL,NULL,NULL,NULL,"<row></row>","P. Cretica L.",,"11","E0051","Vallées humides ombragées","M.-oct.","V",,"RRR (Alp.-Mar., Co.). - Subspont. à Wissembourg","Eury-subtrop.","Lat., de Crète","30-70",,,"<span class=\"sci\"><span class=\"gen\">Pteris</span> <span class=\"sp\">cretica</span></span>"
"137","137","135","290","Pteris serrulata",,"Pteris",,"serrulata",,,,,,"L. f.",NULL,NULL,NULL,NULL,NULL,NULL,NULL,NULL,NULL,NULL,NULL,NULL,NULL,NULL,"<row></row>","P. serrulata L. f.",,"11","E0051 bis","Esp.sino-japonaise naturallsée à Wissembourg",,,,,,,"20-40",,"Cult.","<span class=\"sci\"><span class=\"gen\">Pteris</span> <span class=\"sp\">serrulata</span></span>"
"138","137",,"290","Pteris multifida",,"Pteris",,"multifida",,,,,,"Poir.",NULL,NULL,NULL,NULL,NULL,NULL,NULL,NULL,NULL,NULL,NULL,NULL,NULL,NULL,"<row></row>","P. multifida Poir.",,"11",,,,,,,,,,,,"<span class=\"sci\"><span class=\"gen\">Pteris</span> <span class=\"sp\">multifida</span></span>"
"139","139","93","220","Pteridium",,"Pteridium",,,,,,,,"Gled.",NULL,NULL,NULL,NULL,NULL,NULL,NULL,NULL,NULL,NULL,NULL,NULL,NULL,NULL,"<row></row>","Pteridium Gled.",,"12","G020 bis",,,,,,,"Gr. //pteridion//, diminutif de //pteris//, fougère",,,,"<span class=\"sci\"><span class=\"gen\">Pteridium</span></span>"
"140","140","139","290","Pteridium aquilinum",,"Pteridium",,"aquilinum",,,,,,"(L.) Kuhn.",NULL,NULL,NULL,NULL,NULL,NULL,NULL,NULL,NULL,NULL,NULL,NULL,NULL,NULL,"<row></row>","P. aquilinum (L.) Kuhn.","Fougére Aigle, Grande Fougère, Fougère commune, Fougère impériale","12","E0052","Forêts, champs slliceux","Été","V",,"C. (0-1700 m.)","Subcosm.","Lat. //aquilla//, aigle","60-300",,,"<span class=\"sci\"><span class=\"gen\">Pteridium</span> <span class=\"sp\">aquilinum</span></span>"
"141","141","93","220","Polypodium",,"Polypodium",,,,,,,,"(L.) Roth.",NULL,NULL,NULL,NULL,NULL,NULL,NULL,NULL,NULL,NULL,NULL,NULL,NULL,NULL,"<row></row>","Polypodium (L.) Roth.",,"12","G021",,,,,,,"Gr. //polys//, nombreux : //podion//, petit pied : nombreuses racines",,,,"<span class=\"sci\"><span class=\"gen\">Polypodium</span></span>"
"142","142","141","220","Polypodium vulgare",,"Polypodium",,"vulgare",,,,,,"L.",NULL,NULL,NULL,NULL,NULL,NULL,NULL,NULL,NULL,NULL,NULL,NULL,NULL,NULL,"<row></row>","P. vulgare L.","Polypode, Réglisse des bois","12","E0053","Rochers, murs, base des troncs","Jv.-déc.","V",,"C. (0-2200 m.)","Subcosm.",,"20-50",,,"<span class=\"sci\"><span class=\"gen\">Polypodium</span> <span class=\"sp\">vulgare</span></span>"
"143","143","141","290","Polypodium serratum",,"Polypodium",,"serratum",,,,,,"Willd.",NULL,NULL,NULL,NULL,NULL,NULL,NULL,NULL,NULL,NULL,NULL,NULL,NULL,NULL,"<row></row>","P. serratum Willd.",,"12",,,,,,"Midi et W. jusqu'à Paris",,,,,,"<span class=\"sci\"><span class=\"gen\">Polypodium</span> <span class=\"sp\">serratum</span></span>"
"144","144","93","220","Dryopteris",,"Dryopteris",,,,,,,,"Adans.",NULL,NULL,NULL,NULL,NULL,NULL,NULL,NULL,NULL,NULL,NULL,NULL,NULL,NULL,"<row></row>","Dryopteris Adans.",,"12","G022",,,,,,,"Gr. //drys//, chêne, //pteris//, fougère",,,,"<span class=\"sci\"><span class=\"gen\">Dryopteris</span></span>"
"145","144",,"220","Phegopteris",,"Phegopteris",,,,,,,,"Fée",NULL,NULL,NULL,NULL,NULL,NULL,NULL,NULL,NULL,NULL,NULL,NULL,NULL,NULL,"<row></row>","Phegopteris Fée",,"12",,,,,,,,"Gr. //phégos//, hêtre",,,,"<span class=\"sci\"><span class=\"gen\">Phegopteris</span></span>"
"146","146","144","290","Dryopteris phegopteris",,"Dryopteris",,"phegopteris",,,,,,"(L.) Chrsn.",NULL,NULL,NULL,NULL,NULL,NULL,NULL,NULL,NULL,NULL,NULL,NULL,NULL,NULL,"<row></row>","D. Phegopteris (L.) Chrsn.",,"12","E0054","Rochers ombragés","Jt-at.","V","préf. silic.","AC : 400-2000 m. ; Norm.","Circumbor.",,"15-30",,,"<span class=\"sci\"><span class=\"gen\">Dryopteris</span> <span class=\"sp\">phegopteris</span></span>"
"147","146",,"290","Phegopteris polypodioïdes",,"Phegopteris",,"polypodioïdes",,,,,,"Fée",NULL,NULL,NULL,NULL,NULL,NULL,NULL,NULL,NULL,NULL,NULL,NULL,NULL,NULL,"<row></row>","Ph. polypodioïdes Fée",,"12",,,,,,,,,,,,"<span class=\"sci\"><span class=\"gen\">Phegopteris</span> <span class=\"sp\">polypodioïdes</span></span>"
"148","148","144","290","Dryopteris linanaeana",,"Dryopteris",,"linanaeana",,,,,,"Chrsn.",NULL,NULL,NULL,NULL,NULL,NULL,NULL,NULL,NULL,NULL,NULL,NULL,NULL,NULL,"<row></row>","D. Linanæana Chrsn.",,"12","E0055","Bois, rochers","Jt-at.","V","Préf. silice","R en plaine et dans le Midi, C en mont. (0-2000 m.)","Circumbor.",,"01/10/40",,,"<span class=\"sci\"><span class=\"gen\">Dryopteris</span> <span class=\"sp\">linanaeana</span></span>"
"149","148",,"290","Polypodium dryopteris",,"Polypodium",,"dryopteris",,,,,,"L.",NULL,NULL,NULL,NULL,NULL,NULL,NULL,NULL,NULL,NULL,NULL,NULL,NULL,NULL,"<row></row>","Polypodium Dryopteris L.",,"12",,,,,,,,,,,,"<span class=\"sci\"><span class=\"gen\">Polypodium</span> <span class=\"sp\">dryopteris</span></span>"
"150","150","144","290","Dryopteris robertiana",,"Dryopteris",,"robertiana",,,,,,"(Hoffm.) Chrsn.",NULL,NULL,NULL,NULL,NULL,NULL,NULL,NULL,NULL,NULL,NULL,NULL,NULL,NULL,"<row></row>","D. Robertiana (Hoffm.) Chrsn.",,"12","E0056","Murs, rochers calc. ensoleillés","Jt-at. ","V",,"R en plaine et en Co.,  AC en mont. (0-2000 m.)","Circumbor.","L'odeur des glandes rappellerait un peu celle de //Geranium Robertianum//","01/10/40",,,"<span class=\"sci\"><span class=\"gen\">Dryopteris</span> <span class=\"sp\">robertiana</span></span>"
"151","150",,"290","Polypodium calcareum",,"Polypodium",,"calcareum",,,,,,"Sm.",NULL,NULL,NULL,NULL,NULL,NULL,NULL,NULL,NULL,NULL,NULL,NULL,NULL,NULL,"<row></row>","Polypodium calcareum Sm.",,"12",,,,,,,,,,,,"<span class=\"sci\"><span class=\"gen\">Polypodium</span> <span class=\"sp\">calcareum</span></span>"
"152","152","93","220","Asplenium",,"Asplenium",,,,,,,,"L.",NULL,NULL,NULL,NULL,NULL,NULL,NULL,NULL,NULL,NULL,NULL,NULL,NULL,NULL,"<row></row>","Asplenium L.",,"12","G023",,,,,,,"Gr. //asplénon//, rate ; utilisé jadis contre les maladies attribuées à cet organe",,,,"<span class=\"sci\"><span class=\"gen\">Asplenium</span></span>"
"153","153","152","290","Asplenium septentrionale",,"Asplenium",,"septentrionale",,,,,,"(L.) Hoffm.",NULL,NULL,NULL,NULL,NULL,NULL,NULL,NULL,NULL,NULL,NULL,NULL,NULL,NULL,"<row></row>","A. septentrionale (L.) Hoffm.",,"13","E0057","Rochers siliceux","Jt-at.","V",,"R en plaine, C en mont. (0-2500 m.)","Circumboréo-alp.",,"01/05/17",,,"<span class=\"sci\"><span class=\"gen\">Asplenium</span> <span class=\"sp\">septentrionale</span></span>"
"154","154","152","290","Asplenium glandulosum",,"Asplenium",,"glandulosum",,,,,,"Lois.",NULL,NULL,NULL,NULL,NULL,NULL,NULL,NULL,NULL,NULL,NULL,NULL,NULL,NULL,"<row></row>","A. glandulosum Lois.",,"13","E0058","Fentes des rochers calc.","Av.-Jn.","V",,"Litt. medit. (R)","W-médit.",,"04/10/11",,,"<span class=\"sci\"><span class=\"gen\">Asplenium</span> <span class=\"sp\">glandulosum</span></span>"
"155","154",,"290","Asplenium petrachae",,"Asplenium",,"petrachae",,,,,,"DC.",NULL,NULL,NULL,NULL,NULL,NULL,NULL,NULL,NULL,NULL,NULL,NULL,NULL,NULL,"<row></row>","A. Petrachæ DC.",,"13",,,,,,,,,,,,"<span class=\"sci\"><span class=\"gen\">Asplenium</span> <span class=\"sp\">petrachae</span></span>"
"156","156","152","290","Asplenium marinum",,"Asplenium",,"marinum",,,,,,"L.",NULL,NULL,NULL,NULL,NULL,NULL,NULL,NULL,NULL,NULL,NULL,NULL,NULL,NULL,"<row></row>","A. marinum L.",,"13","E0059","Grottes, rochers, puits","M.-oct.","V",,"Litt. des 3 mers (R)","Atl.",,"01/10/30",,,"<span class=\"sci\"><span class=\"gen\">Asplenium</span> <span class=\"sp\">marinum</span></span>"
"157","157","152","290","Asplenium trichomanes",,"Asplenium",,"trichomanes",,,,,,"L.",NULL,NULL,NULL,NULL,NULL,NULL,NULL,NULL,NULL,NULL,NULL,NULL,NULL,NULL,"<row></row>","A. Trichomanes L.","Polytric officinal, Capillaire","13","E0060","Rochers et murs ombragés, puits","M.-sept.","V",,"AR en plaine ; C en mont. (0-1600 m.)","Cosmop. temp. et subarc.","Nom de la pl. chez les Grecs ; de //thrix//, cheveu","01/06/30",,,"<span class=\"sci\"><span class=\"gen\">Asplenium</span> <span class=\"sp\">trichomanes</span></span>"
"158","158","152","0","Asplenium adulterinum",,,,,,,,,,"Milde",NULL,NULL,NULL,NULL,NULL,NULL,NULL,NULL,NULL,NULL,NULL,NULL,NULL,NULL,"<row></row>","A. adulterinum Milde",,"13","E0061","Rochers de serpentine","Été","V",,"RRR (Hte-V.)","Centeur.","Lat. bâtard, hybride","01/12/22",,,NULL
"159","159","152","290","Asplenium viride",,"Asplenium",,"viride",,,,,,"Huds.",NULL,NULL,NULL,NULL,NULL,NULL,NULL,NULL,NULL,NULL,NULL,NULL,NULL,NULL,"<row></row>","A. viride Huds.",,"13","E0062","Rochers, éboulis calc.","Jt-at.","V",,"R dans les basses mont., C en mont. calc. (400-2300 m.)","Circumbor.",,"01/05/30",,,"<span class=\"sci\"><span class=\"gen\">Asplenium</span> <span class=\"sp\">viride</span></span>"
"160","160","152","290","Asplenium jahandiezi",,"Asplenium",,"jahandiezi",,,,,,"Lit.",NULL,NULL,NULL,NULL,NULL,NULL,NULL,NULL,NULL,NULL,NULL,NULL,NULL,NULL,"<row></row>","A. Jahandiezi Lit.",,"13","E0063","Rochers","Été","V",,"RRR (Var, B.-Alp.)","Endém.","Dédié au botaniste français contemporain Emile Jahandies","05/10/11",,,"<span class=\"sci\"><span class=\"gen\">Asplenium</span> <span class=\"sp\">jahandiezi</span></span>"
"161","161","152","290","Asplenium lepidum",,"Asplenium",,"lepidum",,,,,,"Presl.",NULL,NULL,NULL,NULL,NULL,NULL,NULL,NULL,NULL,NULL,NULL,NULL,NULL,NULL,"<row></row>","A. lepidum Presl.",,"13","E0064","Rochers calc.","Été","V",,"RRRR (Dr., ls.)","N-médit.",,"01/04/13",,,"<span class=\"sci\"><span class=\"gen\">Asplenium</span> <span class=\"sp\">lepidum</span></span>"
"162","162","152","290","Asplenium pulverulentum",,"Asplenium",,"pulverulentum",,,,,,"Chr. et Chat.",NULL,NULL,NULL,NULL,NULL,NULL,NULL,NULL,NULL,NULL,NULL,NULL,NULL,NULL,"<row></row>","A. pulverulentum Chr. et Chat.",,"13",,,,,,"S.-E.",,,,,,"<span class=\"sci\"><span class=\"gen\">Asplenium</span> <span class=\"sp\">pulverulentum</span></span>"
"163","163","152","290","Asplenium fissum",,"Asplenium",,"fissum",,,,,,"Kit.",NULL,NULL,NULL,NULL,NULL,NULL,NULL,NULL,NULL,NULL,NULL,NULL,NULL,NULL,"<row></row>","A. fissum Kit.",,"13","E0064 bis","Rochers calc.","Été","V",,"Alp.-Mar. italiennes, près de nos frontières","N-médit.",,"01/10/30",,,"<span class=\"sci\"><span class=\"gen\">Asplenium</span> <span class=\"sp\">fissum</span></span>"
"164","164","152","290","Asplenium germanicum",,"Asplenium",,"germanicum",,,,,,"Weiss.",NULL,NULL,NULL,NULL,NULL,NULL,NULL,NULL,NULL,NULL,NULL,NULL,NULL,NULL,"<row></row>","A. Germanicum Weiss.",,"14","E0065","Rochers siliceux (presque toujours en compagnie d'//A. septentrionale//)","Jn-sept.","V",,"R (Est, Midi, S.-W.) ; RR ailleurs",,,"01/03/17",,,"<span class=\"sci\"><span class=\"gen\">Asplenium</span> <span class=\"sp\">germanicum</span></span>"
"165","164",,"290","Asplenium septentrionale x Trichomanes",,,,"Asplenium septentrionale x Trichomanes",,,,,,,NULL,NULL,NULL,NULL,NULL,NULL,NULL,NULL,NULL,NULL,NULL,NULL,NULL,NULL,"<row></row>","? A. septentrionale x Trichomanes",,"14",,,,,,,,,,"? A. septentrionale x Trichomanes",,"<span class=\"sci\"><span class=\"formule-hyb\"><span class=\"gen\">Asplenium</span> <span class=\"sp\">septentrionale</span> x <span class=\"gen\">Trichomanes</span></span></span>"
"166","166","152","290","Asplenium x murbecki",,"Asplenium",,"x murbecki",,,,,,"Dœrfl.",NULL,NULL,NULL,NULL,NULL,NULL,NULL,NULL,NULL,NULL,NULL,NULL,NULL,NULL,"<row></row>","x A. Murbecki Dœrfl.",,"14",,,,,,"RR",,,,,,"<span class=\"sci\"><span class=\"gen\">Asplenium</span> <span class=\"hyb\">x <span class=\"sp\">murbecki</span></span></span>"
"167","167","152","290","Asplenium ruta-muraria",,"Asplenium",,"ruta-muraria",,,,,,"L.",NULL,NULL,NULL,NULL,NULL,NULL,NULL,NULL,NULL,NULL,NULL,NULL,NULL,NULL,"<row></row>","A. Ruta-muraria","Rue de muraille","14","E0066","Murs et rochers surtout calcaire","Jv.-déc.","V",,"CC (0-2000 m.)",,"Traduction du nom vulgaire ; les feuilles rappellent la Rue","01/06/15",,,"<span class=\"sci\"><span class=\"gen\">Asplenium</span> <span class=\"sp\">ruta-muraria</span></span>"
"168","168","152","290","Asplenium multicaule",,"Asplenium",,"multicaule",,,,,,"Presl.",NULL,NULL,NULL,NULL,NULL,NULL,NULL,NULL,NULL,NULL,NULL,NULL,NULL,NULL,"<row></row>","A. multicaule Presl.",,"14",,,,,,"RR",,,"20-30",,,"<span class=\"sci\"><span class=\"gen\">Asplenium</span> <span class=\"sp\">multicaule</span></span>"
