"spa","Espagnol"
"fra","Français"
"eng","Anglais"
,
"gcf","Créole (Guadeloupe - Martinique)"
"hat","Haïtien"
"por","Portuguais"
"acf","Créole (Petites Antilles)"
"acf","Créole (Trinidad et Tobago)"
"pap","Papiamento"
"gcr","créole (guyane)"
,"AIM"
,"DUT"
"nld","néerlandais"
"haw","Hawaï"
"zho","chinois"
"por","brésilien"
"jpn","japonais"
,"DOM (PA"
