1	0	niveau		NIV	
2	1	unités phytosociologiques		UP	
3	2	classe		CLA	
4	2	sous-classe		SUBCLA	
5	2	ordre		ORD	
130	2	Sous-ordre		SUBORD	
6	2	alliance		ALL	
7	2	sous-alliance		SUBALL	
8	2	association		ASS	
9	2	sous-association		SUBASS	
131	2			ASSGR	
10	2	groupement		GRPT	
11	2	communauté basale		BC	
12	2	communauté dérivée		DC	
13	1	synonymes		syn	
14	13	inclut en totalité dans l\'unité retenue, mais ne la recouvre qu\'en partie		incl	
15	13	équivalent à l\'unité retenue	[en général postérieur]	equi	
16	13	probablement équivalent à l\'unité retenue	[à vérifier]	prob	
17	13	illégitime	[le nom a été déjà utilisé antérieurement pour une autre application]	illeg	
18	13	inclut en partie dans l\'unité retenue	[il doit exister des autres prties du synonyme dans la base]	pp	
19	13	inclut en majeure partie dans l\'unité retenue		pmaxp	
20	13	inclut en mineure partie dans l\'unité retenue		pminp	
21	13	complexe [synusialement ou classiquement]	ses unités sont à répartir (pp) ou bien il faut le supprimer.	compl	
22	13	ambigu	il créé une confusion	ambig	
23	13	pseudosynonyme (unité différente)		non	
24	13	invalide		inval	
25	13	nomen nudum		nn	
26	13	inédit		ined	
132	13	manuscrit		mscr	
27	0	code CATMINAT		CATMINAT	
28	27	1ere clé de détermination	grands types de milieux	MIL1	
29	28	Eaux marines océaniques et littorales à végétation aquatique essentiellement algale.		01	
30	28	Littoral marin à végétation aérienne, supportant le sel, parfois épisodiquement submergée.		02	
31	28	Eaux continentales à sublittorales, douces à saumâtres, en nappes libres et affleurantes, des lacs, étangs, mares, fleuves et rivières, d\'origines naturelles ou créés par l\'homme.		03	
32	28	Zones humides plus ou moins amphibies, des bords de lacs, d\'étangs, de rivières, sources et dépressions diverses, à végétation herbacée basse plus ou moins éparse, ne recouvrant pas totalement le sol.		04	
33	28	Zones humides, parfois amphibies, des bords de lacs, étangs, fleuves, rivières, torrents, sources, dépressions diverses, à végétation herbacée haute (roselières, cariçaies, mégaphorbiaies), recouvrant généralement complètement le sol.		05	
34	28	Tourbières hautes, tourbières basses et tremblants, prairies tourbeuses.		06	
35	28	Parois plus ou moins verticales des murs et rochers non marins ; éboulis.		07	
36	28	Dalles rocheuses horizontales et sables plus ou moins stabilisés, zones à sols très superficiels généralement de faible niveau trophique et supportant la sécheresse.		08	
37	28	Pelouses, steppes et ourlets développés sur des sols riches en calcium, secs, assez superficiels et généralement pauvres en azote.		09	
38	28	Pelouses, ourlets et herbes vivaces des coupes forestières sur sols acides.		10	
39	28	Pelouses permanentes des étages alpin à subalpin.		11	
40	28	Prairies eurosibériennes des sols moyennement riches à riches en azote, subissant des pratiques agricoles variées (fertilisation, amendement, fauche, pâturage, jachère, semis...).		12	
41	28	Cultures, friches, coupes forestières à sols perturbés, lieux plus ou moins rudéralisés, et zones naturelles de caractères écologiques similaires (pieds de falaises, ourlets dunaires...). 		13	
42	28	Landes et garrigues à plantes vivaces ligneuses (sous-arbrisseaux chaméphytiques de quelques décimètres de hauteur).		14	
43	28	Haies arbustives, halliers, fruticées, maquis, matorrals, buissons, pré-manteaux et manteaux externes et de coupes forestières (lisières arbustives), souvent linéaires mais parfois en nappes spatiales, ou plus ou moins éclatés, constituées d\'arbustes et d\'arbrisseaux.		15	
44	28	Végétations arborescentes et herbacées intraforestières, des forêts, bois et bosquets arborescents.		16	
45	27	 2eme clé de détermination		MIL2	
46	45	Algues marines, pélagiques, présentes en pleine eau dans une zone comprise entre 0 et 50 mètres de profondeur (zone épipélagique).		01/1	
47	45	Algues marines, pélagiques, présents en pleine eau dans une zone comprise entre 50 et 100 mètres de profondeur (zone mésopélagique).		01/2	
48	45	Organismes marins, pélagiques, présents en pleine eau dans une zone comprise entre 100 et 500 mètres de profondeur, au dessus de l\'étage bathyal supérieur (zone infrapélagique). 		01/3	
49	45	Organismes marins, pélagiques, présents en pleine eau dans une zone comprise entre 500 et 3000 mètres de profondeur, au dessus de l\'étage bathyal typique (zone bathypélagique).		01/4	
50	45	Organismes marins, pélagiques, présents en pleine eau dans une zone comprise entre 3000 et 6000 mètres de profondeur, au dessus de l\'étage abyssal (zone abyssopélagique).		01/5	
51	45	Organismes marins, pélagiques, présents en pleine eau dans une zone comprise entre 6000 et 12000 mètres de profondeur, au dessus de l\'étage hadal (zone hadopélagique).		01/6	
52	45	Végétation algale, benthique, aimant la lumière, se développant sur les substrats des étages médiolittoral et infralittoral. [Dictyoto dichotomae - Laurencietea pinnatifidae]		01/7	
53	45	Végétation algale se développant à l\'étage médiolittoral sur des substrats sableux.		01/8	
54	45	Végétation d\'algues incrustantes ou appliquées sur un substrat dur.		01/9	
55	45	Végétation algale aimant la lumière, se développant en épiphyte sur les herbiers de phanérogames marines. 		01/10	
56	45	Végétation herbacée vivace de spermaphytes aquatiques des eaux marines littorales, constituant l\'essentiel de la biomasse des "herbiers sous-marins", surtout présente à l\'étage infralittoral. 		01/11	
57	45	Végétation algale benthique, supportant l\'ombrage, se développant aux étages circalittoral à infralittoral inférieur, avec quelques exclaves en situations écologiques particulières (grottes médiolittorales par exemple).		01/12	
58	45	Végétation algale de milieux riches en azote, se développant aux étages médiolittoral et infralittoral.		01/13	
59	45	Algues marines, benthiques, présentes sur les substrats du talus continental (étage bathyal), entre environ une centaine et 3000 mètres de profondeur, donc au dessous de la profondeur ou l\'éclairement résiduel atteint 1 % de celui de la surface.		01/14	
60	45	Organismes marins, benthiques, présents sur les substrats des plaines abyssales (étage abyssal), entre environ 3000 et 6000 mètres de profondeur.		01/15	
61	45	Organismes marins, benthiques, présents sur les substrats des fosses et ravins des grands fonds (étage hadal), entre environ 6000 et 12000 mètres de profondeur.		01/16	
62	45	Végétation de plantes annuelles aimant l\'azote et supportant le sel (bénéficiant de la minéralisation des laisses de mer), préférant les conditions moyennement humides au niveau du sol. 		02/1	
63	45	Végétation de plantes annuelles supportant légèrement le sel, préférant des sols plutôt secs ou s\'assèchant en surface l\'été, généralement sableux.		02/2	
64	45	Végétation de plantes annuelles supportant le sel, se développant sur les vases salées maritimes des estuaires ou des baies plus ou moins fermées et soumises aux marées, parfois sur des suintements sales de l\'intérieur des terres.		02/3	
65	45	Végétation vivace herbacée des sables calcaires plus ou moins mobiles des dunes littorales maritimes, en climats plutôt chauds. 		02/4	
66	45	Végétation de plantes vivaces herbacées des climats frais, se développant sur les sables et graviers littoraux maritimes.		02/5	
67	45	Végétation de plantes vivaces herbacées, supportant le sel, existant le long des littoraux maritimes des quatre mers, où elles constituent la plus grande partie des "prés salés".		02/6	
68	45	Végétation de plantes vivaces herbacées, se développant dans les fissures éclairées des falaises maritimes méditerranéennes.		02/7	
69	45	Végétation de plantes vivaces surtout ligneuses (sous-arbrisseaux chaméphytiques), des vases salées littorales maritimes (prés salés non ou peu exploités des estuaires et baies). 		02/8	
70	45	Voiles de plantes annuelles aquatiques, flottant librement en surface des eaux douces stagnantes à faiblement mobiles, préférant la lumière mais supportant un ombrage moyen. 		03/1	
71	45	Herbiers dulcaquicoles immergés, surtout vivaces et le plus souvent enracinés, des eaux eutrophes à mésotrophes.		03/2	
72	45	Herbiers dulcaquicoles immergés des eaux dystrophes et organiques à oligotrophes. 		03/3	
73	45	Herbiers dulcaquicoles de charophytes, pionniers dans les milieux perturbés peu profonds, ou permanents et préférant la faible luminosité des profondeurs (jusqu\'à 40 m), dans les eaux calmes ou faiblement courantes, généralement pauvres en azote et phosphore, bien oxygénées, des lacs, étangs et chenaux.		03/4	
74	45	Végétation de plantes herbacées vivaces et enracinées, aérienne mais se développant dans des eaux peu profondes, aimant la lumière, formant souvent des sortes d\'ourlets flottants des roselières mais se développant parfois en nappe, en particulier dans les petites rivières peu profondes et les fossés à faible courant d\'eau de l\'étage planitiaire. 		04/1	
75	45	Végétation herbacée vivace aimant l\'humidité des bords de source.		04/2	
76	45	Végétation herbacée vivace, rase, aquatique à amphibie, des sols pauvres en azote et parfois tourbeux des bords de lacs et d\'étangs.		04/3	
77	45	Pelouses rases amphibies des mares temporaires, constituées de plantes herbacées vivaces, se développant sur des sols pauvres en azote, en zones à climat chaud. 		04/4	
78	45	Végétation de plantes annuelles des lieux humides, se rencontrant sur des sols moyennement riches à pauvres en azote et en phosphore.		04/5	
79	45	Végétation de plantes annuelles a développement estival, pionnière sur sols humides riches en azote et phosphore, s\'asséchant l\'été.		04/6	
80	45	Végétation de plantes annuelles accompagnatrices des cultures de riz. 		04/7	
81	45	Végétation de plantes vivaces herbacées des mégaphorbiaies subalpines à montagnardes et boréales. 		05/1	
82	45	Végétation de plantes vivaces herbacées des mégaphorbiaies planitiaires à collinéennes. Elles se rencontrent au bord des rivières (souvent en situation plus ou moins forestière) et colonisent les prairies humides abandonnées, sur des sols plus ou moins riches en azote et phosphore, inondés généralement seulement l\'hiver. 		05/2	
83	45	Végétation herbacée vivace de grandes plantes des bords d\'étangs et de lacs, plus rarement de rivières, se développant sur des sols engorgés longuement, moyennement riches à riches en azote, parfois tourbeux mais toujours de pH neutre.		05/3	
84	45	Végétation herbacée vivace des tourbières (haut-marais et bas-marais tourbeux à paratourbeux, pelouses humides et tremblants aquatiques), se développant sur des sols pauvres à moyennement pauvres en azote.		06/1	
85	45	Végétation muscinale des tourbières acides.		06/2	
86	45	Végétation muscinale des tourbières neutro-basiques et tufs calcaires. 		06/3	
87	45	Végétation vivace herbacée, des suintements humides et ombragés sur roches calcaires ou riches en bases échangeables, dans les régions à climats plutôt chauds. 		07/1	
88	45	Végétation de plantes vivaces herbacées des murs et parois de rochers plus ou moins verticaux, non ou peu humides. 		07/2	
89	45	Végétation de plantes vivaces herbacées des éboulis plus ou moins mobiles et plus ou moins fins.		07/3	
90	45	Pelouses herbacées vivaces, plus ou moins ouvertes, parfois crassulescentes, des sols superficiels sur dalles et rochers plus ou moins horizontaux, sommets de murs et sables plus ou moins stabilisés.		08/1	
91	45	Pelouses vivaces herbacées, présente sur des terrains calaminaires, chargés en métaux lourds.		08/2	
92	45	Tonsures herbacées annuelles, présentes sur les sols sableux pauvres en azote, ou sur des sols très superficiels sur rochers, secs à moyennement secs (dans ce cas s\'asséchant l\'été), plutôt acides.		08/3	
93	45	Tonsures herbacées annuelles, des sols secs à pH neutre à basique, calciques, pauvres en azote, ou des sols initiaux sur rochers. 		08/4	
94	45	Tonsures annuelles basophiles, sabulicoles, maritimes, thermoméditerranéennes.		08/5	
95	45	Végétation herbacée vivace (avec parfois quelques petits ligneux) des pelouses calcicoles médioeuropéennes, aimant la lumière, développées sur des sols plutôt secs et pauvres en azote, plus ou moins superficiels.		09/1	
96	45	Végétation vivace des lisières herbacées moyennement ombragées (ourlets), développée sur des sols neutro-basiques souvent riches en calcium, pauvres à moyennement pauvres en azote et secs.		09/2	
97	45	Végétation vivace des pelouses calcicoles, essentiellement herbacée mais plus ou moins riche en petits ligneux, présente aux étages méso- à thermoméditerranéen, sur des substrats calcaires ou siliceux mais alors riches en cations échangeables, pauvres à moyennement pauvres en azote.		09/3	
98	45	Végétation vivace des pelouses basophiles subdésertiques.		09/4	
99	45	Végétation herbacée vivace des pelouses sur sols acides, assez pauvres en azote, mais généralement assez profonds, présentes de la plaine à l\'étage alpin, longuement enneigées à ce dernier étage. 		10/1	
100	45	Végétation vivace des lisières herbacées plus ou moins ombragées (ourlets) sur sols acides, pauvres à moyennement pauvres en azote. 		10/2	
101	45	Pelouses vivaces et ouvertes sur sols acides, pauvres en azote, peu profonds, enneigés peu longuement et seulement en hiver, exposées aux vents violents et froids, arctico-alpines. 		11/1	
102	45	Pelouses vivaces se développant sur les sols humides et longuement enneigés des combes à neige.		11/2	
103	45	Pelouses vivaces permanentes, ouvertes, établies sur des sols pauvres en azote, à pH neutrobasique, dans des zones généralement exposées, précocement déneigées, à climat froid, arctico-alpines.		11/3	
104	45	Pelouses des étages alpin et subalpin, présentes sur des sols riches en calcium, pauvres en azote, bien exposés, en zones de climat à grande amplitude thermique journalière, de répartition européenne plutôt méridionale.		11/4	
105	45	Végétation herbacée vivace des prairies eurosibériennes. 		12/1	
106	45	Friches herbacées vivaces à nombreuses espèces bisannuelles, le plus souvent rudérales, aimant l\'azote, développée sur des sols secs à moyennement secs, dans des régions au climat plutôt chaud. 		13/1	
107	45	Friches et ourlets constitués de plantes vivaces herbacées, répandues dans la région eurosibérienne sur des sols riches en azote, moyennement pourvus en eau, exceptionnellement humides et dans ce cas ombragés. 		13/2	
108	45	Végétations d\'annuelles accompagnatrices des cultures, développée sur des sols riches à moyennement riches en azote. 		13/3	
109	45	Friches annuelles pionnières, développée sur des sols riches à moyennement riches en azote, dans les zones rudéralisées.		13/4	
110	45	Végétations nitrophiles naturelles à annuelles pionnières des clairières, lisières et éboulis européens.		13/5	
111	45	Tonsures nitrophiles des lieux surpiétinés.		13/6	
112	45	Landes méditerranéennes méridionales, présentes aux étages montagnard et supraméditerranéen corso-sardes. 		14/1	
113	45	Garrigues méditerranéennes, présentes sur des sols à pH neutre à basique.		14/2	
114	45	Cistaies méditerranéennes développées sur des sols acides en zones à climat chaud.		14/3	
115	45	Landes planitiaires-collinéennes, des zones de climat océanique tempéré, sur sols généralement acides. 		14/4	
116	45	Landes arctico-alpines à planitiaires-continentales, des zones à climat plutôt froid.		14/5	
117	45	Chaméphytaies halophiles continentales à sublittorales, méditerranéennes à subdésertiques.		14/6	
118	45	Manteaux et maquis méditerranéens (matorrals).		15/1	
119	45	Pré-manteaux arbustifs pionniers, aimant la lumière et la chaleur, établis sur des sols minéraux, acides, plutôt pauvres en azote, jamais humides. 		15/2	
120	45	Fourrés arbustifs hygrophiles des sols tourbeux planitiaires à submontagnard.		15/3	
121	45	Fourrés arbustifs aimant la chaleur, établis sur des sols minéraux et humides à fort battement de nappe, essentiellement le long des rivières méditerranéennes.		15/4	
122	45	Fourrés arbustifs des sols minéraux humides souvent à éléments grossiers, répandue dans les eaux courantes à fort battement saisonnier de nappe, surtout dans les fleuves et rivières de la région eurosibérienne.		15/5	
123	45	Fourrés arbustifs subalpins, mésohydriques.		15/6	
124	45	Buissons hydrophiles, boréaux à subalpins, rarement montagnards (tourbières).		15/7	
125	45	Végétation arbustive eurosibérienne, des manteaux externes et des coupes, fruticées, halliers (= manteau en nappe, équivalent structural des maquis ou matorrals méditerranéens), haies, également dispersée à l\'intérieur des forêts ou formant des fourrés de colonisation, des buissons. Elle est établie généralement sur des sols assez riches en azote, souvent évolués (avec des horizons pédologiques bien définis), non tourbeux, aux étages planitiaires à montagnard.		15/8	
126	45	Associations arborescentes, généralement caducifoliées, planitiaires à montagnardes, exceptionnellement supraméditerranéennes.		16/1	
127	45	Associations arborescentes, généralement sempervirentes et dominées par des conifères, boréo-subalpines.		16/2	
128	45	Associations arborescentes, généralement sempervirentes et dominées par des arbres feuillus sclérophylles, plus rarement par des conifères, thermo- et mésoméditerranéennes. 		16/3	
129	45	Végétation herbacée vivace, le plus souvent intraforestière, plus ou moins adaptée à un ombrage relatif et à une humidité atmosphérique relativement élevée, de développement optimal généralement printanier.		16/4	
