num_nom	num_nom_retenu	num_tax_sup	rang	nom_sci	nom_supra_generique	genre	epithete_infra_generique	epithete_sp	type_epithete	epithete_infra_sp	cultivar_groupe	cultivar	nom_commercial	auteur	annee	biblio_origine	notes	nom_addendum	homonyme	num_type	num_basionyme	synonyme_proparte	synonyme_douteux	synonyme_mal_applique	synonyme_orthographique	orthographe_originelle	hybride_parent_01	hybride_parent_01_notes	hybride_parent_02	hybride_parent_02_notes	nom_francais	presence	statut_origine	statut_introduction	statut_culture	exclure_taxref	num_tax	basionyme	presence_Guadeloupe	presence_Martinique	presence_Saint_Martin	presence_La_Desirade	presence_Saint_Barthelemy	presence_Marie_Galante	presence_Les-Saintes	CD_NOM	modification_type	modification_type_1	modification_type_2	modification_type_3
81																																														0	M	0	0	1
104																																														0	M	0	0	1
107																																														0	M	0	0	1
122	14974																																				NULL										M	1	0	1
540	540	12351																																			NULL										M	1	0	1
597																																							NULL	NULL							M	0	0	1
670																																								NULL							M	0	0	1
671																																							NULL	NULL							M	0	0	1
672																																							NULL	NULL							M	0	0	1
790																																							NULL	NULL	NULL		NULL				M	0	0	1
791																																							NULL	NULL	NULL		NULL				M	0	0	1
846																																							NULL	NULL							M	0	0	1
916																																														0	M	0	0	1
918																																														0	M	0	0	1
923																																														0	M	0	0	1
938																																							NULL	NULL							M	0	0	1
939																																							NULL	NULL							M	0	0	1
940																																							NULL	NULL							M	0	0	1
941														(D.Don) Hochr.																																	M	0	0	1
1114														(Cogn.) D.D.Dod																									NULL	NULL							M	0	0	1
1115														(Rchb.f.) Schlechter																																	M	0	0	1
1170																																							NULL	NULL							M	0	0	1
1171																																							NULL	NULL							M	0	0	1
1240				Beloperone 'super-goldy'				NULL		NULL		super-goldy																																			M	0	1	0
1330														R.Br.																									NULL	NULL							M	0	0	1
1331														(Salisb.) R.Br.																									NULL	NULL							M	0	0	1
1332																																							NULL	NULL							M	0	0	1
1333														D.Don																									NULL	NULL							M	0	0	1
1336																																							NULL	NULL							M	0	0	1
1337														R.Br.																									NULL	NULL							M	0	0	1
1420																																														0	M	0	0	1
1422																																														0	M	0	0	1
1426																																							NULL	NULL							M	0	0	1
1429																																							NULL	NULL							M	0	0	1
1443																																							NULL								M	0	0	1
1444																																							NULL	NULL							M	0	0	1
1446																																							NULL	NULL							M	0	0	1
1447																																							NULL	NULL							M	0	0	1
1448																																							P	P							M	0	0	1
1509																																														0	M	0	0	1
1635																																														0	M	0	0	1
1651																																							NULL	NULL							M	0	0	1
1738	14960																																						NULL								M	1	0	1
1739																																							NULL	NULL							M	0	0	1
1746																																								NULL							M	0	0	1
2000														Batem. & Rchb.f.																																	M	0	0	1
2003														(Rchb.f.) Rchb.f.																									NULL	NULL	NULL		NULL				M	0	0	1
2004														(Batem. & Rchb.f.) Veitch																									NULL	NULL							M	0	0	1
2005														Rchb.f.																									NULL	NULL	NULL		NULL				M	0	0	1
2016																																														0	M	0	0	1
2216																																														0	M	0	0	1
2217																																														0	M	0	0	1
2266														(Sw.) Rchb.f.																									NULL								M	0	0	1
2369																																														0	M	0	0	1
2370																																														0	M	0	0	1
2599														Rchb.f.																									NULL	NULL							M	0	0	1
2600																																							NULL	NULL							M	0	0	1
2617																																														0	M	0	0	1
2762																																														0	M	0	0	1
2778																																														0	M	0	0	1
2843																																							NULL								M	0	0	1
2844																																							E								M	0	0	1
2903																																							NULL	NULL							M	0	0	1
2904																																							NULL	NULL							M	0	0	1
2906																																							NULL	NULL							M	0	0	1
2907																																								P							M	0	0	1
2908																																							NULL	NULL							M	0	0	1
3166	14966																																														M	1	0	0
3180																																	N							P							M	0	0	1
3185	7320																																						NULL	NULL							M	1	0	1
3186																																							NULL								M	0	0	1
3187																																							NULL	NULL							M	0	0	1
3188																																							NULL	NULL							M	0	0	1
3189																																							NULL	NULL							M	0	0	1
3191																																							NULL								M	0	0	1
3352																																							NULL	NULL							M	0	0	1
3353														(Kunth) Rchb.f.																									NULL	NULL							M	0	0	1
3354																																							NULL	NULL							M	0	0	1
3355																																							NULL	NULL							M	0	0	1
3356																																							NULL	NULL							M	0	0	1
3368																																														0	M	0	0	1
3402																																							NULL	NULL							M	0	0	1
3406																																							NULL	NULL							M	0	0	1
3409																																								NULL							M	0	0	1
3410																																							NULL	NULL							M	0	0	1
3411																																							NULL	NULL							M	0	0	1
3412														Rchb.f.																									NULL	NULL							M	0	0	1
3413																																							NULL	NULL							M	0	0	1
3429	14958																																														M	1	0	0
3432	14958																																														M	1	0	0
3438																																														0	M	0	0	1
3468																																														0	M	0	0	1
3496																																							NULL								M	0	0	1
3497																																							NULL	NULL							M	0	0	1
3498	3502																																						NULL	NULL							M	1	0	1
3499																																							NULL								M	0	0	1
3500	3500	13646															la mise en synonymie avec picta est une erreur reproduite fréquemment. Ce sont deux espèces différentes, picta n'appartennat pas à la flore locale																														M	1	0	1
3501														Rchb.f.																																	M	0	0	1
3502	3502	13646															correction de 3504 à 3502																														M	1	0	1
3504	3502	NULL	290	Dichaea muricata				muricata									ligne complétée car apparemment oubli																													0	M	1	1	1
3506														C.Schweinf.																									NULL	NULL							M	0	0	1
3507																																							NULL								M	0	0	1
3508														(C.Schweinf.) Garay & Sweet																									NULL	NULL							M	0	0	1
3879	14969																																														M	1	0	0
3885														(R.Br.) Rchb.f. ex Cogn.																									NULL	NULL							M	0	0	1
3886																																							NULL								M	0	0	1
3902																																							NULL	NULL							M	0	0	1
3903																																							NULL	NULL							M	0	0	1
3904																																								NULL							M	0	0	1
3905																																								NULL							M	0	0	1
3919																																							NULL	NULL							M	0	0	1
3920																																							NULL	NULL							M	0	0	1
3921																																							NULL	NULL							M	0	0	1
3925																																							NULL								M	0	0	1
3926																																							NULL								M	0	0	1
3927	3989																																						NULL	NULL							M	1	0	1
3928																																							NULL	NULL							M	0	0	1
3929	14953																C'est en fait une espèce brésilienne																NULL						NULL	NULL							M	1	0	1
3930																																							NULL	NULL							M	0	0	1
3932																																							NULL	NULL							M	0	0	1
3933	7320																																						NULL	NULL							M	1	0	1
3934																																							NULL	NULL							M	0	0	1
3935																																							NULL	NULL							M	0	0	1
3936																																							NULL								M	0	0	1
3937																																							NULL	NULL							M	0	0	1
3940	3940	13650												Jacq.	1760	Enum. Syst. Pl. 29																	N				1177 ?		S								M	1	0	1
3941																																							NULL	NULL							M	0	0	1
3942																																							NULL	NULL							M	0	0	1
3943	3989																																														M	1	0	0
3944																																							NULL								M	0	0	1
3945																																								NULL							M	0	0	1
3946																	Espèce cultivée																														M	0	0	1
3947																																							NULL	NULL							M	0	0	1
3948																																							NULL	NULL							M	0	0	1
3949																																														0	M	0	0	1
3950																																														0	M	0	0	1
3951	3989																																													0	M	1	0	1
3952																																														0	M	0	0	1
3954																																							NULL	NULL	NULL		NULL				M	0	0	1
3956																																							NULL	NULL	NULL		NULL				M	0	0	1
3957	14953																																						NULL	NULL							M	1	0	1
3958																																							NULL	NULL							M	0	0	1
3959														L.C.Rich.																																	M	0	0	1
3960																																							NULL	NULL							M	0	0	1
3961														Rchb.f.																																	M	0	0	1
3963																																							NULL	NULL							M	0	0	1
3964																																							NULL	NULL							M	0	0	1
3966																																							NULL	NULL							M	0	0	1
3967																																							NULL	NULL							M	0	0	1
3968																	Absent de la zone. Erreur de localisation															NULL	NULL						A								M	0	0	1
3969																																								NULL							M	0	0	1
3970																																							NULL	NULL							M	0	0	1
3971																																							NULL								M	0	0	1
3972																	Absent de la zone. Erreur de localisation																													0	M	0	0	1
3973																	C'est une erreur d'identification selon Garay & Sweet															A	NULL							D							M	0	0	1
3974																																	N							P							M	0	0	1
3976																																							NULL	NULL							M	0	0	1
3979																																							NULL	NULL							M	0	0	1
3980																																							NULL	NULL							M	0	0	1
3981														(Stehlé) E.Hágsater																			N-E						P	P							M	0	0	1
3983	3989	NULL												E.Hágsater			C'est un synonyme de E. secundum Jacq. (Feldmann, 2012)																						NULL	NULL							M	1	0	1
3984																																							NULL	NULL							M	0	0	1
3985																																							NULL	NULL							M	0	0	1
3986																																							NULL	NULL							M	0	0	1
3987																																														0	M	0	0	1
3988	3989																																													0	M	1	0	1
3989																																	N-E								NULL						M	0	0	1
3990														Rchb.f.																																	M	0	0	1
3991																																							NULL								M	0	0	1
3992																																							NULL	NULL							M	0	0	1
3993	14966																																							NULL							M	1	0	1
3994																																							NULL	NULL							M	0	0	1
3995																																							NULL	NULL							M	0	0	1
3996																																							NULL	NULL							M	0	0	1
3997																																							NULL	NULL							M	0	0	1
4122																	Je ne sais comment indiquer que ce taxon contient 2 espèces (14617 et 14 783). Il est indiqué par erreur endémique																N														M	0	0	1
4125																																							NULL	NULL							M	0	0	1
4302														(Lindl.) Rchb.f.																									NULL	NULL							M	0	0	1
4303																																							NULL	NULL							M	0	0	1
4742																																														0	M	0	0	1
4900																																							NULL								M	0	0	1
4901														Rchb.f.																																	M	0	0	1
4902																																							NULL	NULL							M	0	0	1
4903														(Sw.) Rchb.f.																																	M	0	0	1
4904														Rchb.f.																																	M	0	0	1
4905																																							NULL								M	0	0	1
4906														(Rchb.f.) L.O.Wms.																									NULL								M	0	0	1
4987																																														0	M	0	0	1
5041														(Rchb.f.) Garay & Sweet																																	M	0	0	1
5085																																														0	M	0	0	1
5386														(Sw.) Rchb.f.																																	M	0	0	1
5528																																							NULL	NULL							M	0	0	1
5529																																							NULL								M	0	0	1
5611														(Rchb.f.) Stehlé																									NULL	NULL							M	0	0	1
5761																																														0	M	0	0	1
5949																																							NULL	NULL							M	0	0	1
5950																																							NULL	NULL							M	0	0	1
5951														M.W.Chase			présence aux Saintes																												P		M	0	0	1
5954																	présent en Martinique. N'est paqs endémique des Antilles françaises																							P							M	0	0	1
5956																																							NULL								M	0	0	1
5974	14969																																														M	1	0	0
6013																																							NULL	NULL							M	0	0	1
6014																																							NULL	NULL							M	0	0	1
6015																																							NULL	NULL			NULL				M	0	0	1
6016																																							NULL	NULL							M	0	0	1
6017																																							NULL	NULL							M	0	0	1
6018																																							NULL								M	0	0	1
6019																																														621295	M	0	0	1
6031														Rchb.f.																									NULL	NULL							M	0	0	1
6032																																							NULL	NULL							M	0	0	1
6201														(Rchb.f.) Léon ex Hawkes																																	M	0	0	1
6203																																							NULL								M	0	0	1
6204																																							NULL								M	0	0	1
6380	14958	NULL															Confusion d'espèce. Celle-ci est absnte de la zone ( feldmann, 2012)															A	NULL						A								M	1	0	1
6381														Rchb.f.																									P	NULL							M	0	0	1
6382	7320	NULL															Les synonymies entre Ornithidium et Maxillaria doivnet être interverties. Endémqiue des Antilles seulement																														M	1	0	1
6383	14960													(Rchb.f.) L.O. Wms.																									NULL								M	1	0	1
6384																																							E								M	0	0	1
6385	14960	NULL															Les synonymies entre Ornithidium et Maxillaria doivnet être interverties																														M	1	0	1
6387	14958																																						NULL								M	1	0	1
6643														Rchb.f.																									NULL								M	0	0	1
6644																																							NULL	NULL							M	0	0	1
6645																																							NULL								M	0	0	1
6646																																							NULL								M	0	0	1
6647																																							NULL								M	0	0	1
6920																																														0	M	0	0	1
6960																																							NULL	NULL							M	0	0	1
7030																																														0	M	0	0	1
7049																																							NULL	NULL							M	0	0	1
7050																																							NULL	NULL			NULL				M	0	0	1
7051																																							NULL	NULL							M	0	0	1
7052																																							NULL	NULL							M	0	0	1
7053																																							NULL								M	0	0	1
7054																																							NULL	NULL							M	0	0	1
7168																																							NULL	NULL							M	0	0	1
7169														Ph.Feldmann & Barré																																	M	0	0	1
7170																																							NULL	NULL							M	0	0	1
7185																																							P	P							M	0	0	1
7208																																							NULL								M	0	0	1
7209																	Disparu de Marie-Galante																											E-W			M	0	0	1
7210	14969																																N						P								M	1	0	1
7211																																							NULL	NULL							M	0	0	1
7213																																							NULL	NULL							M	0	0	1
7214	14969													Rchb.f.																										NULL							M	1	0	1
7215																																							NULL								M	0	0	1
7216																																							NULL	NULL							M	0	0	1
7217														Rchb.f.																										NULL							M	0	0	1
7218	14969																																														M	1	0	0
7219														Rchb.f.																									NULL								M	0	0	1
7220																																							NULL								M	0	0	1
7221																																							NULL	NULL							M	0	0	1
7222														Rchb.f.																									NULL	NULL							M	0	0	1
7223																																							NULL								M	0	0	1
7224																																								NULL							M	0	0	1
7225																																							NULL								M	0	0	1
7226																																								NULL							M	0	0	1
7227																																							NULL								M	0	0	1
7228														Rchb.f.																									NULL	NULL							M	0	0	1
7253																																							NULL	NULL							M	0	0	1
7254																																							NULL	NULL							M	0	0	1
7255																																							NULL	NULL							M	0	0	1
7256																																							NULL	NULL							M	0	0	1
7319																																							NULL	NULL							M	0	0	1
7320	7320	14961												(Jacq.) R.Br.																			N														M	1	0	1
7321	14960													Rchb.f.																			N							P							M	1	0	1
7461																																														0	M	0	0	1
7509																																														0	M	0	0	1
7539																																														0	M	0	0	1
7555																																														0	M	0	0	1
7825																																							NULL	NULL							M	0	0	1
7826																																							NULL	NULL							M	0	0	1
7827																																							NULL	NULL							M	0	0	1
7981																																														0	M	0	0	1
8051																																														0	M	0	0	1
8054																																														0	M	0	0	1
8102																																														0	M	0	0	1
8103																																														0	M	0	0	1
8107																																														0	M	0	0	1
8115																																														0	M	0	0	1
8143																																														0	M	0	0	1
8180														Rchb.f.																									NULL	NULL							M	0	0	1
8181																																							NULL	NULL							M	0	0	1
8182																																							NULL	NULL							M	0	0	1
8183																																							NULL	NULL							M	0	0	1
8184														A.Rich.																									NULL	NULL							M	0	0	1
8405																																							NULL	NULL							M	0	0	1
8408														Rchb.f.																									NULL	NULL							M	0	0	1
8409																																							NULL	NULL							M	0	0	1
8410																																							NULL	NULL							M	0	0	1
8411																																							NULL	NULL							M	0	0	1
8412	14964																																						NULL	NULL							M	1	0	1
8413																																								NULL							M	0	0	1
8414																																							NULL	NULL							M	0	0	1
8415																																							NULL	NULL							M	0	0	1
8416	14968																cf Luer (2007) ; Feldmann (2012) qui n'acceptent pas le rattachement au genre Stelis																														M	1	0	1
8417	14964	NULL																																						A							M	1	0	1
8418																																								NULL							M	0	0	1
8420														(Jacq.) R.Br.																																	M	0	0	1
8421																																								NULL							M	0	0	1
8422	14966	NULL															je retines la combinaison de Luer ainsi que l'orthographe classique testaefolia																														M	1	0	1
8423	14968																																						NULL	NULL							M	1	0	1
8424														Rchb.f.																									NULL	NULL							M	0	0	1
8425	14968																																						NULL	NULL							M	1	0	1
8427																																							NULL								M	0	0	1
8475																																							NULL	NULL							M	0	0	1
8476																																							NULL	NULL							M	0	0	1
8526																																														0	M	0	0	1
8528																																							NULL								M	0	0	1
8530														(Hook.) Rchb.f.																																	M	0	0	1
8531																																							NULL	NULL							M	0	0	1
8532																																							NULL								M	0	0	1
8533																																							NULL	NULL							M	0	0	1
8535														Rchb.f.																									NULL	NULL							M	0	0	1
8539														(Sims) R.Br.																									NULL	NULL							M	0	0	1
8618														Rchb.f. ex Griseb.																									NULL	NULL							M	0	0	1
8638																																							P	P							M	0	0	1
8696																																							NULL								M	0	0	1
8697														(Lindl.) H.G.Jones																																	M	0	0	1
8802																																														0	M	0	0	1
8866																																							NULL	NULL	NULL		NULL				M	0	0	1
8883														Rchb.f.																									NULL	NULL							M	0	0	1
9034																																							P								M	0	0	1
9035																																							NULL								M	0	0	1
9117														sensu Griseb. non Murray		NULL															NULL								NULL							NULL	M	0	0	1
9160																																	N										NULL				M	0	0	1
9246														(Sw.) P.N.Don																									NULL	NULL							M	0	0	1
9255																																							NULL	NULL							M	0	0	1
9256																																							NULL	NULL							M	0	0	1
9257																																							NULL	NULL							M	0	0	1
9258																																							NULL	NULL							M	0	0	1
9259																																							NULL	NULL			NULL				M	0	0	1
9261																																							NULL	NULL							M	0	0	1
9262																																							NULL	NULL							M	0	0	1
9270														(Rchb.f.) Schlecht.																																	M	0	0	1
9271														(Rchb.f.) C.Schweinf.																			N														M	0	0	1
9494																																							NULL								M	0	0	1
9495																																							NULL								M	0	0	1
9713																																														0	M	0	0	1
9742																																														0	M	0	0	1
9907																																							NULL	NULL							M	0	0	1
9919														Rchb.f.																									NULL								M	0	0	1
9920																																							NULL	NULL							M	0	0	1
9921																																							P	P							M	0	0	1
9922														(Labill.) Rchb.f.																																	M	0	0	1
9923														Rchb.f.																									NULL								M	0	0	1
9924																																								NULL							M	0	0	1
9961																																							NULL	NULL							M	0	0	1
9962																																							NULL	NULL							M	0	0	1
9963														(Sw.) L.C.Rich.																									NULL	NULL							M	0	0	1
9964																																							NULL	NULL							M	0	0	1
9965																																							NULL	NULL			NULL				M	0	0	1
9966														(Sw.) A.Rich.																									NULL	NULL			NULL				M	0	0	1
9967																																							NULL	NULL							M	0	0	1
9968																																							NULL	NULL							M	0	0	1
9970														(Sw.) L.C.Rich.																									NULL	NULL							M	0	0	1
10015																																							NULL	NULL							M	0	0	1
10016																																							NULL	NULL							M	0	0	1
10017																																							NULL	NULL							M	0	0	1
10019																																							NULL	NULL							M	0	0	1
10029																																							NULL								M	0	0	1
10033																																							NULL	NULL							M	0	0	1
10034														Rchb.f.																									NULL	NULL							M	0	0	1
10051																																											NULL				M	0	0	1
10052																																							NULL	NULL			NULL				M	0	0	1
10190																																														0	M	0	0	1
10244																																														0	M	0	0	1
10245																																														0	M	0	0	1
10246																																														0	M	0	0	1
10325														Rchb.f.																									NULL	NULL							M	0	0	1
10331																																							NULL	NULL							M	0	0	1
10332																																								NON	P	P	P				M	0	0	1
10471														(Rchb.f.) Braem																																	M	0	0	1
10472																																								E	P	P	P	P	P		M	0	0	1
10529	14966																																														M	1	0	0
10561																																							NULL	NULL							M	0	0	1
10604																	Une observation douteuse de Vivant																D						NULL					Douteux			M	0	0	1
10654																																														0	M	0	0	1
10719														R.Br.																									NULL	NULL							M	0	0	1
10720																																							NULL	NULL							M	0	0	1
10721														(Roxb.) Hook. ex D.Don																																	M	0	0	1
10728																																							NULL	NULL							M	0	0	1
10729																																							NULL	NULL							M	0	0	1
10730																																							NULL	NULL							M	0	0	1
10732																in Andrews ; Bot. Repos. 8: t. 538																															M	0	0	1
10733	10731	NULL															V. pleei est une fausse espèce comme déjà indiqué par plusieurs auteurs. Tous les échantillons sont de V. mexicana																D							Douteux							M	1	0	1
10948														(Sw.) Rchb.f.			Tous les spécimens ont été mal identifiés. La bonne espèce est W. calcarata															A	A						A	A							M	0	0	1
11040	14966																																														M	1	0	0
11075																																														0	M	0	0	1
11087	14960																																														M	1	0	0
11176																																							NULL	NULL							M	0	0	1
11177																																							NULL	NULL							M	0	0	1
11178																																							NULL	NULL							M	0	0	1
11179	3502																																						NULL	NULL							M	1	0	1
11180																																							NULL	NULL							M	0	0	1
11207																																							NULL	NULL							M	0	0	1
12064																																														0	M	0	0	1
12116																																														0	M	0	0	1
12174																																														0	M	0	0	1
12198																																														0	M	0	0	1
12266																																														0	M	0	0	1
12556																																														0	M	0	0	1
12624																																														0	M	0	0	1
12806																																														0	M	0	0	1
13063																																														0	M	0	0	1
13181																																														0	M	0	0	1
13233																																														0	M	0	0	1
13279																																														0	M	0	0	1
13375																																														0	M	0	0	1
13378																																														0	M	0	0	1
13434																																														0	M	0	0	1
13516																																														0	M	0	0	1
13618																																								NULL							M	0	0	1
13622														NULL																										NULL							M	0	0	1
13624														NULL																										NULL							M	0	0	1
13625																																								NULL							M	0	0	1
13627																																								NULL							M	0	0	1
13628																																								NULL							M	0	0	1
13629																																								NULL							M	0	0	1
13631														NULL																										NULL							M	0	0	1
13633																																								NULL							M	0	0	1
13634														NULL																										NULL							M	0	0	1
13636																																								NULL							M	0	0	1
13638														NULL																																	M	0	0	1
13639																																								NULL							M	0	0	1
13640																																								NULL							M	0	0	1
13641														NULL																										NULL							M	0	0	1
13645														NULL																										NULL							M	0	0	1
13646																																								NULL							M	0	0	1
13647																																								NULL							M	0	0	1
13650														NULL																										NULL							M	0	0	1
13651																																														0	M	0	0	1
13652																																								NULL							M	0	0	1
13655														NULL																										NULL							M	0	0	1
13656																																														0	M	0	0	1
13657																																								NULL							M	0	0	1
13658																																								NULL							M	0	0	1
13659																																								NULL							M	0	0	1
13660																																								NULL							M	0	0	1
13663														NULL	NULL																									NULL							M	0	0	1
13664														NULL	NULL																									NULL							M	0	0	1
13665																																								NULL							M	0	0	1
13669																																								NULL							M	0	0	1
13670																																								NULL							M	0	0	1
13671														NULL																										NULL							M	0	0	1
13675																																								NULL							M	0	0	1
13676																																								NULL							M	0	0	1
13678																																								NULL							M	0	0	1
13680																																								NULL							M	0	0	1
13682																																								NULL							M	0	0	1
13683																																								NULL							M	0	0	1
13684																																								NULL							M	0	0	1
13686																																								NULL							M	0	0	1
13687																																								NULL							M	0	0	1
13688																																								NULL							M	0	0	1
13689																																								NULL							M	0	0	1
13695																																								NULL							M	0	0	1
13696																																														0	M	0	0	1
13698																																								NULL							M	0	0	1
13700														NULL																										NULL							M	0	0	1
13702														NULL	NULL																									NULL							M	0	0	1
13703																																								NULL							M	0	0	1
13704																																								NULL							M	0	0	1
13705																																														0	M	0	0	1
13707																																								NULL							M	0	0	1
13708																																								NULL							M	0	0	1
13709																																								NULL							M	0	0	1
13710																																								NULL							M	0	0	1
13712														NULL																										NULL							M	0	0	1
13713														NULL																										NULL							M	0	0	1
13714																																								NULL							M	0	0	1
13846																																														0	M	0	0	1
14209																																														0	M	0	0	1
14336		14900																																												0	M	1	0	1
14444														NULL	NULL																									NULL							M	0	0	1
14504																																														0	M	0	0	1
14520														Rchb.f. & Warsc.																		A														0	M	0	0	1
14521														auct.			Absent de la zone ou alors cultivé															A														0	M	0	0	1
14537																																														0	M	0	0	1
14558																																														0	M	0	0	1
14599																																														0	M	0	0	1
14613																																							NULL	NULL							M	0	0	1
14614																	Cf D. hookeri. Picta peut être indiqué comme absente de la zone.															A							NULL								M	0	0	1
14615																	Absent de la zone															A							NULL	NULL							M	0	0	1
14617																	ne comprte qu'un taxon sur deux de E. hirtella																N														M	0	0	1
14619																																	N														M	0	0	1
14620																																	N														M	0	0	1
14621																																							NULL	E							M	0	0	1
14622																																								NULL							M	0	0	1
14623														(Jacq.) M.W.Chase & N.H.Williams																			N														M	0	0	1
14624	14969	NULL												(Lindl.) M.W.Chase & N.H.Williams			C'est T. undulatum																							NULL							M	1	0	1
14625																																								P							M	0	0	1
14626														(Hook.) Pridgeon & M.W.Chase																			N														M	0	0	1
14627	14968	NULL															je retiens la combinaison de Luer même si elle n'est pas encore retenu dans la World checklist																						NULL	NULL							M	1	0	1
14628																	D' où sort cette proposition ?																						NULL								M	0	0	1
14629														Rolfe	1917																																M	0	0	1
14630																Orchid. Rev. 25(291) : 51																	A							NULL							M	0	0	1
14635																																														0	M	0	0	1
14646																																	N														M	0	0	1
14647																																					NULL			NULL							M	0	0	1
14650																																														0	M	0	0	1
14678																																														0	M	0	0	1
14684																																							NULL	NULL							M	0	0	1
14735																																														0	M	0	0	1
14736																																														0	M	0	0	1
14953	14953	13650	290	Epidendrum angustilobum		Epidendrum		angustilobum						Fawc. & Rendle	1909	J. Bot. 47: 124	E. latifolium et E. tridens ne sont pas des espèces de la zone														P	N			0	4890		P	P						0	A	0	0	0
14954	14954	14616	290	Microchilus familiaris		Microchilus		familiaris						Ormerod	2009	Harvard Pap. Bot. 14: 121	issus d'un spmlit de M; hirtellus														P	N			0	4891		P	P						0	A	0	0	0
14955	14955	14444	220	Mormolyca		Mormolyca								Fenzl	1850	Denkschr. Kaiserl. Akad. Wiss., Wien. Math.-Naturwiss. Kl. 1: 253																			0	4892									0	A	0	0	0
14956	14956	14955	290	Mormolyca pudica		Mormolyca		pudica						(Carnevali & J.L.Tapia) M.A.Blanco	2007	Lankesteriana 7: 531															P	N			0	4893		P							0	A	0	0	0
14957	14957	14444	220	Maxillariella		Maxillariella								M.A.Blanco & Carnevali	2007	Lankesteriana 7: 527																			0	4894									0	A	0	0	0
14958	14958	14957	290	Maxillariella alba		Maxillariella		alba						(Hook.) M.A.Blanco & Carnevali	2007	Lankesteriana 7: 528															P	D			0	4895			P						0	A	0	0	0
14959	14958		290	Maxillaria alba		Maxillaria		alba						(Hook.) Lindl.	1832	Gen. Sp. Orchid. Pl.: 143																			0	4896									0	A	0	0	0
14960	14960	14961	290	Ornithidium inflexum		Ornithidium		inflexum						(Lindl.) Rchb.f.	1864	in W.G.Walpers, Ann. Bot. Syst. 6: 928	Les synonymies entre Ornithidium et Maxillaria doivnet être interverties														P	N			0	4897		P							0	A	0	0	0
14961	14961	14444	220	Ornithidium		Ornithidium								Salisb. ex R.Br.	1813	Hortus Kew. 5: 210																			0	4898									0	A	0	0	0
14962	14962	14629	290	Myrmecophila thomsoniana		Myrmecophila		thomsoniana						(Rchb.f.) Rolfe	1917	Orchid. Rev. 25(291) : 51															P	N			0	4899		P							0	A	0	0	0
14963	14963	14444	220	Anathallis		Anathallis								Barb.Rodr.	1877	Gen. Spec. Orchid. 1: 23																			0	4900									0	A	0	0	0
14964	14964	14963	290	Anathallis mazei		Anathallis		mazei						(Urb.) Luer	2009	Monogr. Syst. Bot. Missouri Bot. Gard. 115: 259															P	N-E			0	4901		P							0	A	0	0	0
14965	14965	14444	220	Apoda-prorepentia		Apoda-prorepentia								(Luer) Luer	2004	Monogr. Syst. Bot. Missouri Bot. Gard. 95: 255	je retiens la combinaison de Luer même si elle n'est pas encore retenu dans la World checklist																		0	4902									0	A	0	0	0
14966	14966	14965	290	Apoda-prorepentia testaefolia		Apoda-prorepentia		testaefolia						(Sw.) Luer	2004	Monogr. Syst. Bot. Missouri Bot. Gard. 95: 255	je retiens la combinaison de Luer même si elle n'est pas encore retenu dans la World checklist														P	N			0	4903			P						0	A	0	0	0
14967	14967	14444	220	Effusiella		Effusiella								Luer	2007	Monogr. Syst. Bot. Missouri Bot. Gard. 112: 106	je retiens la combinaison de Luer même si elle n'est pas encore retenu dans la World checklist																		0	4904									0	A	0	0	0
14968	14968	14967	290	Effusiella imraei		Effusiella		imraei						(Lindl.) Luer	2007	Monogr. Syst. Bot. Missouri Bot. Gard. 112: 106	je retiens la combinaison de Luer même si elle n'est pas encore retenu dans la World checklist														P	N			0	4905		P	P						0	A	0	0	0
14969	14969	14622	290	Trichocentrum undulatum		Trichocentrum		undulatum						(Sw.) Ackerman & M.W.Chase	2001	Lindleyana 16: 225															P	N			0	4906			P						0	A	0	0	0
14970	14970	13695	290	Scaphyglottis dunstervillei		Scaphyglottis		dunstervillei						(Garay) Foldats	1968	Acta Bot. Venez. 3: 398	espèce oubliée dans les taxons présents en Guadeloupe														P	N			0	4907		P							0	A	0	0	0
14971	14971	14444	220	Hexadesmia		Hexadesmia								Brongniart	1842	Annales des Sciences Naturelles, Botanique sér. 2, 17: 44																			0	4908									0	A	0	0	0
14972	14970		290	Hexadesmia dunstervillei		Hexadesmia		dunstervillei						Garay	1968	Bot. Mus. Leafl. 18: 203 t. 39																			0	4909									0	A	0	0	0
14973	14973	13714	290	Wullschlaegelia calcarata		Wullschlaegelia		calcarata						Benth.	1881	Journal of the Linnean Society, Botany 18: 342																N			0	4910		P	P						0	A	0	0	0
14974	14974	13892	290	Rumex conglomeratus		Rumex		conglomeratus						Murray	1770	Prodr. Stirp. Götting., 52														Rumex crépu					0			P							119471	A	0	0	0
