"4"	"8"	"Association des Botanistes Lorrains"	"http://www.nature-en-lorraine.net/floraine.htm"		"0"	"0"		"0"			"1030402800"
"6"	"10"	"Association des Naturalistes de la Vallée du Loing et du Massif de Fontainebleau"	"http://perso.club-internet.fr/anvl/"		"0"	"0"		"0"			"1030402800"
"7"	"11"	"Association des Naturalistes de Nice et des Alpes-Maritimes"	"http://perso.club-internet.fr/asnatnic/index.htm"		"0"	"0"		"0"			"1030402800"
"8"	"13"	"Association d'Informatique Appliquée à la Botanique"	"http://sophy.u-3mrs.fr/"	"Base de données Sophy, phytosociologie, écologie végétale.
"	"0"	"0"		"0"			"1030402800"
"10"	"18"	"Association Mycologique et Botanique de l'Hérault et des Hauts-Cantons"	"http://ambhhc.bed.free.fr"		"0"	"0"		"0"			"1030402800"
"11"	"21"	"Association pour la Promotion et la Protection des Invertébrés"	"http://www.multimania.com/appi"		"0"	"0"		"0"			"1030402800"
"12"	"23"	"Association pour l'Information et la Recherche en Ecologie"	"http://pagesperso-orange.fr/a.i.r.e./"		"0"	"0"		"0"			"1228089600"
"13"	"24"	"Association Tela Botanica"	"http://www.tela-botanica.org/"		"0"	"0"		"0"			"1030402800"
"160"	"405"	"A fleur de marée, balades nature"	"http://afleurdemaree.blogspot.com/"	NULL	"0"	"0"	NULL	"0"	NULL	NULL	"1205798400"
"15"	"26"	"Centre de Pomologie la Mazière"	"http://www.bsi.fr/pomologie/index.htm"		"0"	"0"		"0"			"1030402800"
"18"	"34"	"Ecole et Nature"	"http://www.educ-envir.org"		"0"	"0"		"0"			"1030402800"
"19"	"35"	"Ecologia Mediterranea"	"http://jupiter.u-3mrs.fr/~ms461w14/"		"0"	"0"		"0"			"1030402800"
"20"	"36"	"Ecologistes de l'Euzière"	"http://www.euziere.org/"		"0"	"0"		"0"			"1077091356"
"22"	"39"	"Fédération Mycologique Dauphiné-Savoie"	"http://www.fmbds.org/"		"0"	"0"		"0"			"1228780800"
"23"	"40"	"Fédération Rhône-Alpes de Protection de la Nature - Ain"	"http://www.frapna.org/ain/"		"0"	"0"		"0"			"1228780800"
"27"	"48"	"Flora Quebeca"	"http://www.floraquebeca.qc.ca"		"0"	"0"		"0"			"1228780800"
"28"	"50"	"Graines de Vie"	"http://graines.free.fr/"		"0"	"0"		"0"			"1030402800"
"31"	"56"	"La Garance voyageuse"	"http://www.garancevoyageuse.org"		"1"	"0"		"0"			"1228780800"
"33"	"59"	"La Salamandre"	"http://salamandre.net/ "		"0"	"0"		"0"			"1228780800"
"36"	"65"	"Les Naturalistes Parisiens"	"http://naturalistes.chez.com/"		"0"	"0"		"0"			"1229040000"
"37"	"69"	"Gentiana - Société Botanique Dauphinoise D. Villars"	"http://www.gentiana.org"		"0"	"0"		"0"			"1228780800"
"38"	"73"	"Société Botanique du Centre-Ouest"	"http://sbco.free.fr/"		"0"	"0"		"0"			"1110452551"
"200"	"300"	"Société botanique suisse"	"http://sbg.scnatweb.ch/"		"0"	"0"		"0"			"1231200000"
"40"	"294"	"Réseau des muséums de la région Centre"	"http://perso.wanadoo.fr/samnel.museum/Remuce.htm"		"0"	"0"		"0"			"1030402800"
"41"	"81"	"Société des Naturalistes d'Oyonnax"	"http://perso.wanadoo.fr/sdno/"		"0"	"0"		"0"			"1030402800"
"42"	"91"	"Société Française de Systématique"	"http://sfs.snv.jussieu.fr/"		"0"	"0"		"0"			"1030402800"
"43"	"94"	"Société Linnéenne de Lyon"	"http://www.linneenne-lyon.org"		"0"	"0"		"0"			"1030402800"
"44"	"95"	"Société Linnéenne de Provence"	"http://slprovence.olympe-network.com"		"0"	"0"		"0"			"1223942400"
"45"	"98"	"Société Mycologique du Haut-Rhin"	"http://www.myco-haut-rhin.com/"		"0"	"0"		"0"			"1030402800"
"46"	"100"	"Société pour l'Etude et la Protection de la Nature en Bretagne"	"http://www.bretagne-vivante.asso.fr/"		"0"	"0"		"0"			"1231718400"
"48"	"103"	"Vivarmor Nature"	"http://assoc.wanadoo.fr/vivarmor/"		"0"	"0"		"0"			"1030402800"
"49"	"104"	"Muséum d'Histoire Naturelle de Nice"	"http://www.nice-coteazur.org/francais/tourisme/jardin/botanique/"		"0"	"0"		"0"			"1030402800"
"50"	"105"	"Biotope"	"http://www.biotope.fr/"		"1"	"0"		"0"			"1030402800"
"51"	"106"	"Centre du Réseau Suisse de Floristique"	"http://www.cjb.unige.ch/rsf/fra/mainfra.htm"		"0"	"0"		"0"			"1030402800"
"53"	"108"	"Les Fleurs Sauvages d'Acadie"	"http://www.fleurs-acadie.com/"		"0"	"0"		"0"			"1030402800"
"54"	"109"	"Centre de Coop. Internationale de Recherche Agronomique pour le Développement"	"http://www.cirad.fr/"		"0"	"0"		"0"			"1030402800"
"55"	"118"	"Conservatoire et Jardin Botaniques de la Ville de Genève"	"http://wwwcjb.unige.ch/"		"0"	"0"		"0"			"1030402800"
"56"	"119"	"Courrier de l'Environnement de l'INRA"	"http://www.inra.fr/Internet/Produits/dpenv/pa.htm"		"0"	"0"		"0"			"1030402800"
"57"	"134"	"Ministère de l'Ecologie et du Développement Durable"	"http://www.environnement.gouv.fr/"		"0"	"0"		"0"			"1030402800"
"58"	"136"	"Société Française d'Orchidophilie"	"http://www.sfo-asso.com/"		"0"	"0"		"0"			"1070009813"
"59"	"141"	"Société Linnéenne du Québec"	"http://ecoroute.uqcn.qc.ca/group/slq/"		"0"	"0"		"0"			"1030402800"
"60"	"0"	"Agence Méditerranéenne de L'Environnement"	"http://www.ame-lr.org/"	"Après treize années d’action au service de l’environnement, l’aventure se termine à la fin de l’année 2004 pour l’Agence Méditerranéenne de l’Environnement. Sur ce site, vous pouvez toujours consulter les publications de l’AME dans leur intégralité. Les rubriques consacrées à l’actualité ou à la présentation de l’AME ont été supprimées. "	"0"	"0"		"0"			"1228089600"
"61"	"143"	"Muséum National d'Histoire Naturelle"	"http://www.mnhn.fr/"		"0"	"0"		"0"			"1030402800"
"62"	"147"	"Société Nationale de Protection de la Nature"	"http://www.snpn.com"		"0"	"0"		"0"			"1231718400"
"63"	"149"	"Association pour le Renouveau de l'Herboristerie"	"http://www.chez.com/renouveaudelherboristerie"		"0"	"0"		"0"			"1030402800"
"64"	"154"	"Association Française Culture et Protection des Orchidées"	"http://www.afcpo.asso.fr/Association/assoc_accueil.htm"		"0"	"0"		"0"			"1196121600"
"65"	"156"	"Fédération Française des Amateurs d'Orchidées"	"http://www.ffao-orchid.com/"		"0"	"0"		"0"			"1030402800"
"66"	"157"	"Société Occitane d'Orchidologie"	"http://www.cardonille.com/ophrys/"		"0"	"0"		"0"			"1030402800"
"67"	"158"	"Pixiflore"	"http://www.pixiflore.com"	"Balade dans le monde des plantes sauvages et de la nature.<br />
Pixiflore.com: est un site internet dédié à la protection et à la connaissance de la flore et de la nature.<br />
C'est des balades virtuelles, des reportages, des interviews, une émission de télévision: Chlorophylle, mais aussi de nombreuses fiches détaillées sur les plantes et des leçons de botanique interactives et ludiques."	"0"	"0"		"0"			"1227225600"
"165"	"136"	"Glossaire de botanique de la SFO"	"http://www.sfo-asso.com/pages/connaissances.php?parent=6&id=12"	"La SFO a pensé que la mise sur la toile en libre accès d'un glossaire botanique illustré pourrait rendre service à beaucoup d'amateurs ou d'étudiants que le \"jargon\" pratiqué par les botanistes pouvait rebuter. Il comporte environ 7500 entrées et quelque 1150 illustrations.
"	"0"	"0"		"0"			"1227830400"
"68"	"159"	"Société Mycologique Landaise"	"http://perso.libertysurf.fr/cnre/"		"0"	"0"		"0"			"1030402800"
"70"	"164"	"Jardin botanique et végétarium de La Gacilly"	"http://www.jardinyr.com"		"0"	"0"		"0"			"1030402800"
"71"	"165"	"Société Mycologique du Nord de la France"	"http://www2.ac-lille.fr/myconord"		"0"	"0"		"0"			"1231718400"
"72"	"166"	"Muséum d'Histoire Naturelle de Grenoble"	"http://www.museum-grenoble.fr"		"0"	"0"		"0"			"1030402800"
"73"	"168"	"FORAMEC inc."	"http://www.foramec.qc.ca"		"0"	"0"		"0"			"1030402800"
"75"	"174"	"Société de Sciences Naturelles Loire Forez"	"http://ssnlf.free.fr"		"0"	"0"		"0"			"1030402800"
"76"	"249"	"Association Mycologique et Botanique du Loiret"	"http://pagesperso-orange.fr/ambl/"		"0"	"0"		"0"			"1228262400"
"77"	"93"	"Société Linnéenne de Bordeaux"	"http://perso.wanadoo.fr/linneenne-bordeaux"		"0"	"0"		"0"			"1075282380"
"78"	"250"	"Association Flore et Vie"	"http://florevie.free.fr/"	"Le site permet de consulter le programme des activités de l'association et de voir des photos de sorties. Un catalogue de liens est également en ligne."	"0"	"0"		"0"			"1030402800"
"80"	"77"	"Société Botanique Ligérienne"	"http://site.voila.fr/sbl/"		"0"	"0"		"0"			"1030402800"
"81"	"52"	"Groupement des Amateurs de Graminées"	"http://membres.lycos.fr/gramagr/"		"0"	"0"		"0"			"1030402800"
"82"	"137"	"Librairie René Thomas"	"http://www.librairie-thomas.com"		"1"	"0"		"0"			"1030402800"
"83"	"130"	"Conservatoire Botanique National du Bassin Parisien"	"http://www.mnhn.fr/mnhn/cbnbp/"	NULL	"0"	"0"	NULL	"0"	NULL	NULL	"1030402800"
"84"	"0"	"Parc des Mamelles"	"http://www.zooguadeloupe.com"	"Parc zoologique et botanique de Guadeloupe."	"0"	"0"	NULL	"0"	NULL	NULL	"1030402800"
"85"	"261"	"Perche Nature"	"http://www.perchenature.org"		"0"	"0"		"0"			"1032390000"
"86"	"188"	"Maison de la Nature de Bois Joubert"	"http://perso.wanadoo.fr/.bretagne-vivante-sepnb/BoisJoubert.htm"	NULL	"0"	"0"	NULL	"0"	NULL	NULL	"1032735600"
"87"	"15"	"Association Faune et Flore de l’Orne"	"http://perso.wanadoo.fr/affo"		"0"	"0"		"0"			"1036018800"
"88"	"1"	"Arnica Montana"	"http://www.arnica-montana.org"	NULL	"0"	"0"	NULL	"0"	NULL	NULL	"1037314800"
"89"	"118"	"Code international de la nomenclature botanique."	"http://www.cjb.unige.ch/cjb/code/sommaire.html"	NULL	"0"	"0"	NULL	"0"	NULL	NULL	"1040857200"
"90"	"0"	"Index synonymique des mousses de France."	"http://perso.wanadoo.fr/index.mousses"	"Site perso de Camille Granger traitant des bryophytes."	"0"	"0"	NULL	"0"	NULL	NULL	"1040857200"
"91"	"0"	"Pepinière Filippi - Plantes pour jardins secs"	"http://www.jardin-sec.com"	"Plantes demandant peu d'entretien. Diversité botanique du climat méditerranéen. Jardin original, adapté à l'environnement paysager régional.
"	"0"	"0"	NULL	"0"	NULL	NULL	"1041289200"
"92"	"224"	"Bambouseraie d'Anduze"	"http://www.bambouseraie.fr/"	NULL	"0"	"0"	NULL	"0"	NULL	NULL	"1041289200"
"93"	"273"	"Livres rares - Librairie Mahieu"	"http://www.livre-rare-book.com/Mahieu.htm"	NULL	"0"	"0"	NULL	"0"	NULL	NULL	"1041289200"
"94"	"0"	"Planète-Sylves"	"http://fvayeur.free.fr/planete-sylves"	"Planete-Sylves est une liste de discussion dont l'objet principal est la forêt.
Son ambition est de regrouper tous les forestiers et amoureux de la forêt francophones en réseau efficace pour échanger toutes les infos concernant la sylviculture mais aussi toutes les disciplines s'y rapportant : droit forestier et environnemental, dendrologie, dendromètrie, botanique, cynégétique, écologie, accueil du public, DFCI, et tout autre thème proche.
"	"0"	"0"	NULL	"0"	NULL	NULL	"1041289200"
"95"	"0"	"Fondation Yves Rocher"	"http://www.yves-rocher-fondation.org/"	NULL	"1"	"0"	NULL	"0"	NULL	NULL	"1041289200"
"96"	"275"	"Chateau farine formation"	"http://www.chateaufarine-formation.net/"	"Centre de formation, horticulture, botanique, agriculture, forêt, centre de ressources."	"0"	"0"	NULL	"0"	NULL	NULL	"1042153200"
"97"	"0"	"@ rbore'Tom"	"http://www.arboretom.com/"	"L'annuaire de l'Arbre et des Forêt du monde.
Arboriculture maladie, Livres, Ecole, Botanique,  Annuaires, Arboretums/Arbres remarquables, Materiels /fournitures, 
arbres(sites generaliste), Métiers du bois, Forêt, loisirs/sport, Ecologie 
"	"0"	"0"	NULL	"0"	NULL	NULL	"1103106032"
"98"	"0"	"Paysage de Champagne les faux de Verzy (fagus sylvatica tortuosa)"	"http://tortillard.chez.tiscali.fr/"	"Les formes les plus insolites des créatures arborescentes, les faux (fau) de Verzy. 
Le plus beau site de hêtres tortillards en Europe."	"0"	"0"	NULL	"0"	NULL	NULL	"1042758000"
"99"	"276"	"Société Française d'Orchidophilie - Section Finistère-Armor"	"http://www.orchidees-ouest.com/"		"0"	"0"	NULL	"0"		"Pour les amateurs d’orchidées Tropicales : <br>
Rencontres conviviales - Conseils de Culture - Culture in vitro - Organisations d’Exposition - Voyages - Visites et sorties découvertes. <br>
Pour les amateurs d’orchidées Européennes : <br>
Gestion de milieu - Cartographie - Sorties découvertes."	"1043362800"
"100"	"277"	"Découverte naturaliste et séjours."	"http://www.planete-vercors.com/guides/"	NULL	"0"	"0"	NULL	"0"	NULL	NULL	"1043362800"
"101"	"280"	"ISATIS"	"http://isatis31.free.fr"	"ISATIS : une revue botanique de la Haute-Garonne et de Midi-Pyrénées.
ISATIS en Haute-Garonne : un projet de cartographie de la flore à l’échelle du département.
ISATIS dans le Gers : connaissance de la flore et des milieux naturels."	"0"	"0"	NULL	"0"	NULL	NULL	"1045436400"
"102"	"102"	"Richardiana : La revue trimestrielle, éditée par Tropicalia, consacrée aux Orchidées."	"http://www.richardiana.com/"	"<br>Publication de monographies
Paphiopedilum, 
Laelia et genres alliés, Vandas, 
taxinomie, systématique, phytogéographie, conservation, botanique, classification, Jardin botanique de la Ville de Lyon (Parc de la Tête d’Or, salle de la Boule verte : lieu de réunion d'un groupe de travail), genre Aerangis (distribution géographique, description, culture...)"	"0"	"0"	NULL	"0"	NULL	NULL	"1045782000"
"103"	"12"	"Association des naturalistes des Yvelines"	"http://www.any78.org"	"Entomologie, Mycologie, Botanique, Ornithologie, Géologie, Conchyliologie, Herpétologie."	"0"	"0"	NULL	"0"		NULL	"1048781859"
"104"	"113"	"Conservatoire Botanique National Alpin"	"http://cbn-alpin.org"	"Présentation du CBNA, de son équipe et de ses activités."	"0"	"0"	NULL	"0"	NULL	NULL	"1047463428"
"105"	"217"	"Jardin Botanique de Bordeaux"	"http://www.mairie-bordeaux.fr/jardin-botanique/Index.html"	"Le JARDIN BOTANIQUE est, depuis 1856 à BORDEAUX,
le centre de la culture scientifique sur les plantes et la nature.
Et aujourd'hui sur l'Internet, vous pouvez consulter son index seminum et passer votre commande,
vous tenir informés des dernières parutions botaniques, participer aux activités..."	"0"	"0"	NULL	"0"	NULL	NULL	"1047895923"
"106"	"0"	"Visa pour la flore."	"http://www.visapourlaflore.com"	"Michel Baracetti avec visa pour la flore vous invitent à découvrir les richesses de la vallée d'Eyne et vous propose une boutique de ses créations.

"	"0"	"0"	NULL	"0"	NULL	NULL	"1048782013"
"107"	"70"	"Site de la Société Botanique de France"	"http://www.bium.univ-paris5.fr/sbf/"	"Présentation de la SBF, activités, publications, bibliothèque."	"1"	"0"	NULL	"0"	NULL	NULL	"1049808630"
"108"	"282"	"Association pour la Connaissance de la Flore du Jura."	"http://www.acfj.asso.cc-pays-de-gex.fr/"	"Lorsqu'il crée en 1981 l'Association pour la Connaissance de la Flore du Jura, le Docteur Corcelle lui donne une devise : \"Connaître la flore pour l'aimer et l'aimer assez pour la protéger\". <br>
Pour faire connaître et faire aimer, l'Association encadre, pour ses membres, des sorties à la découverte des plantes, des paysages végétaux et aussi des oiseaux et des insectes.
<br>
Les expositions d'automne à base de panneaux composés de photographies, illustrent des thèmes botaniques comme, \"La flore de l'Ain\", \"La flore des marais\", \"Les prairies sèches\", \"Les crêtes du Jura\", \"La forêt\", \"Les plantes compagnes\", \"Les plantes en familles\". Pour en prolonger l'impact, les expositions sont généralement accompagnées de brochures illustrées.
<br>
En 1995, l'ACFJ  réalise un sentier d'interprétation : Le Chemin du Reculet. En 13 stations repérées par des bornes, différents aspects du milieu naturel sont décrits, de la géologie à l'occupation humaine, en passant par la faune et la flore. Chaque station et son thème sont décrits dans une brochure : \"Sur le chemin du Reculet\".
"	"0"	"0"	NULL	"0"	NULL	NULL	"1228262400"
"109"	"0"	"FUTURS composés"	"http://www.futurs-composes.org"	"FUTURS composés est une association loi 1901 qui a notamment pour buts d’interroger et de sensibiliser le public sur le devenir de notre planète à long terme d'après les données scientifiques disponibles à l'heure actuelle et donc en refusant tout discours ou intrusion spiritualiste. De conceptualiser, modéliser et concrétiser (croquis, dessins, illustrations, tableaux, maquettes, sculptures…) les futurs possibles de la biodiversité, de l'évolution des espèces, des changements climatiques, écologiques…"	"0"	"0"	NULL	"0"	NULL	NULL	"1050477804"
"110"	"284"	"DIAGONAL, le spécialiste des outils linguistiques."	"http://www.prolexis.com/"	"Prolexis, Myriades, petit Prolexis."	"1"	"0"	NULL	"0"	NULL	NULL	"1051622645"
"111"	"0"	"\"Plantouz\", la page personnelle de Daniel Chicouène."	"http://dc.plantouz.chez.tiscali.fr/"	"Publications, Chercheurs, botanique, malherbologie, protection des cultures, plantes prairiales cultivées, problèmes agricoles et forestiers."	"0"	"0"	NULL	"0"	NULL	NULL	"1052142333"
"112"	"285"	"Musée et Jardins botaniques cantonaux."	"http://www.botanique.vd.ch"	"Les Musée et Jardins botaniques cantonaux sont une institution publique régie par la loi cantonale vaudoise sur les activités culturelles du 19 septembre 1978.<br>
Ses principales missions sont:<br>
• Acquérir, accepter en dépôt, conserver et préparer les collections botaniques vaudoises.<br>
• Etudier les collections et publier les résultats scientifiques de ces études.<br>
• Gérer une bibliothèque spécialisée.<br>
• Faire connaître les collections auprès de la population et assurer le rayonnement de l’institution sur le plan national et international. "	"0"	"0"	NULL	"0"	NULL	NULL	"1052899044"
"113"	"0"	"Orchidées du Tarn-et-Garonne"	"http://perso.wanadoo.fr/liliane.pessotto/"	"Photographies des orchidées du Tarn-et-Garonne (dans l'est du département et autour de Saint-Antonin).
On peut trouver ces orchidées dans des zones ou des biotopes bien précis. Inutile de les chercher dans les terres cultivées,
labourées, où des engrais sont répandus régulièrement. C'est plutôt dans les zones moins exploitées, les friches, les garrigues, les pelouses, mais aussi dans les bois de chênes
pubescents ou tout simplement au bord des routes que vous aurez le plus de chance de les voir."	"0"	"0"	NULL	"0"	NULL	NULL	"1053352961"
"114"	"0"	"Graines et semences d'arbres."	"http://www.semencesdupuy.com/page.php"	"Vente à distance de graines d'arbres et d'arbustes. Le catalogue comprend plus de 1000 variétés de graines des 5 continents des plus classiques aux plus exotiques.
"	"0"	"0"	NULL	"0"	NULL	NULL	"1053616823"
"115"	"0"	"Orchidées de Provence"	"http://perso.wanadoo.fr/pm.blais/"	"Présentation, répartition, photographies des orchidées indigènes du Var, de la Provence et de la Région Méditerranéenne. 
Cartographie complète des espèces du Var.
Nombreux liens commentés sur tous les sites du monde parlant d'orchidées.
Orchidées, Orchids, Botanique, Botany, Photographie, Cartographie, Liens."	"0"	"0"	NULL	"0"	NULL	NULL	"1054711612"
"116"	"286"	"Pôle-relais Tourbières"	"http://www.pole-tourbieres.org/"	NULL	"0"	"0"	NULL	"1"	NULL	NULL	"0"
"117"	"288"	"Green Ecology"	"http://perso.wanadoo.fr/green-ecology/"	"Objectifs principaux : 
Veiller à la protection et la valorisation de l'environnement, du patrimoine, du milieu
rural et naturel, de la qualité de vie et du développement durable sous tous ses aspects."	"0"	"0"	NULL	"0"	NULL	NULL	"1055242409"
"118"	"289"	"Le Réseau Partenarial des Données sur l’Eau"	"http://www.eau-poitou-charentes.org"	"Le Réseau Partenarial des Données sur l’Eau (RPDE), animé par l'Observatoire Régional de l'Environnement, a pour objectif d’améliorer la circulation et la valorisation de l’information sur l’eau en Poitou-Charentes."	"0"	"0"	NULL	"0"	"Le site met à disposition des utilisateurs :
- des « informations structurantes (répertoire d’acteurs, catalogue de données,…)
- les produits élaborés dans le cadre du réseau (bulletins mensuels de situation hydrologique, bulletin annuel de la ressource en eau, …),
- une interface cartographique d’accès aux données (réseaux de
mesures piézométriques, hydrométriques, qualitatives, zonages réglementaires…),
- une plate-forme d’échanges de données."	NULL	"1055518909"
"119"	"171"	"Centre de la Nature Montagnarde."	"http://www.rubinsnature.asso.fr/"	"Le centre a pour vocation l'accueil des scolaires et du public, haut-savoyard ou autre, afin de leur délivrer une information sur la vie de la montagne sous tous ses aspects. au moyen d'exposition, de documents, de dispositifs audiovisuels ou informatiques faisant appel à leur participation active.

"	"0"	"0"	NULL	"0"	NULL	NULL	"1056460877"
"120"	"0"	"A Fleur de Pau"	"http://www.afleurdepau.com"	"Site à vocation régionale. 
Il recense près d'une centaine d'idées de sorties nature autour de Pau, dans les 3 départements : 40, 64 et 65."	"0"	"0"	NULL	"0"	NULL	NULL	"1056468634"
"121"	"0"	"Jardin d'Oiseaux Tropicaux"	"http://www.jotropico.com"	"Le Jardin d'Oiseaux Tropicaux a été créé à La Londe en 1989. Ancien arboretum, ce parc de 6 hectares bénéficie d'une flore remarquable, composée de différentes espèces d'Eucalyptus et de plantes tropicales.
"	"0"	"0"	NULL	"0"	"En plus du Parc aux Oiseaux, vous pourrez découvrir différents jardins :
Le Jardin Austral, le Jardin Mexicain Le Jardin Asiatique La Palmeraie."	NULL	"1056467122"
"122"	"291"	"Endémia, Faune et Flore de Nouvelle-Calédonie."	"http://www.endemia.nc/"	"L'association \"Endemia\" n'est là que pour gérer ce site web. Notre objectif est de promouvoir l'originalité de la bio-diversité calédonienne. Nous souhaitons en même temps mettre en avant les associations et tous les organismes qui s'intéressent à la nature calédonienne.
Notre but n'est pas faire de l'ombre à ceux qui aiment la même chose que nous... mais, passionnés par cette richesse, de développer un outil qui n'existait pas et que beaucoup de gens attendaient visiblement. "	"0"	"0"	NULL	"0"	NULL	NULL	"1056966814"
"123"	"0"	"Programme de conservation des forêts sèches de Nouvelle-Calédonie."	"http://www.foretseche.nc/"	"Amélioration des connaissances, protection et restauration des sites, valorisation, gestion durable."	"0"	"0"	NULL	"0"	NULL	NULL	"1056970049"
"124"	"289"	"Observatoire régional de l'environnement Poitou-Charente"	"http://www.observatoire-environnement.org/"	"Pour une connaissance partagée de l'environnement."	"0"	"0"	NULL	"0"	NULL	NULL	"1057138231"
"125"	"0"	"Jardin des plantes de Montpellier"	"http://www.jardindesplantes-montpellier.com/"	"Actualité, historique et caractéristiques du jardin, Index seminum. "	"0"	"0"	NULL	"0"	NULL	NULL	"1059732414"
"126"	"0"	"Plantes envahissantes de la région méditerranéenne."	"http://www.ame-lr.org/plantesenvahissantes/"	"Les invasions biologiques sont désormais considérées, à l’échelle mondiale, comme la deuxième cause d'extinction d'espèces et d'appauvrissement de la diversité biologique, juste après la destruction des habitats naturels.
<br>
Face à ce constat alarmant, l'Agence Méditerranéenne de l'Environnement du Languedoc-Roussillon et l' Agence Régionale Pour l'Environnement de Provence-Alpes-Côte d'Azur se sont associées au Conservatoire Botanique National Méditerranéen de Porquerolles pour mettre en place un programme pluriannuel d'actions et de recherche sur le thème des plantes envahissantes dont le guide qui vous est proposé ici est un des premiers résultats. 
"	"0"	"0"	NULL	"0"	NULL	NULL	"1060609102"
"127"	"0"	"Vendée Nature"	"http://www.vendee-nature.com/"	"Du bocage au littoral, la Vendée possède un large éventail de milieux naturels, occupés par une multitude d'espèces animales et végétales.
A travers ces différentes rubriques,  ce site vous offre un apreçu de cette richesse exceptionnelle et vous invite à venir la découvrir."	"0"	"0"	NULL	"0"	NULL	NULL	"1060779805"
"128"	"183"	"Site de l'AIAPS"	"http://www.aiaps.org"		"0"	"0"	NULL	"0"	NULL	NULL	"1063872462"
"129"	"66"	"Office des Données Naturalistes d'Alsace"	"http://alsace.nature.free.fr/Odonat.htm"	"ODONAT - Alsace. Un réseau associatif au service de l'information sur les espèces et les milieux naturels."	"0"	"0"	NULL	"0"	NULL	NULL	"1063896407"
"166"	"388"	"CCSTI Nord-Pas de Calais – Forum des sciences"	"http://www.forum-des-sciences.tm.fr/"	"
"	"0"	"0"		"0"			"1228176000"
"131"	"298"	"Les Jardins de Valloires"	"http://www.jardins-de-valloires.com"		"0"	"0"		"0"			"1069687672"
"132"	"301"	"Station universitaire du Limousin"	"http://www.unilim.fr/sulim"		"0"	"0"		"0"			"1075288585"
"133"	"0"	"Herbier Philippe Rabaute - Page personnelle de Philippe Rabaute"	"http://perso.wanadoo.fr/herbier.philippe.rabaute/"	"Le résumé de son projet d'herbier.Les articles qu'il a écrits consultables directement en ligne. Compte-rendus d'herborisation, de voyages botanique (Espagne, Grèce, etc...) et de botanique générale. Des illustrations de son herbier et de photos."	"0"	"0"	NULL	"0"	NULL	NULL	"1080899365"
"134"	"82"	"Société d'Etude des Sciences naturelles de Nîmes et du Gard"	"http://sesnng.free.fr"		"0"	"0"	NULL	"0"	NULL	NULL	"1085729596"
"135"	"99"	"Société Mycologique et Botanique de Chambéry"	"http://perso.wanadoo.fr/smbrc"		"0"	"0"	NULL	"0"	NULL	NULL	"1095084359"
"136"	"0"	"Faune et flore
Sud-Isère et Archipel Arctique Canadien"	"http://sudiserenature.monsite.wanadoo.fr/"	"Faune et flore du sud Isère, Photos d'expéditions dans l'archipel arctique canadien.
Plantes arctiques et alpines.
Photos et textes de Gilbert Billard

"	"0"	"0"	NULL	"0"	NULL	NULL	"1096364724"
"137"	"287"	"Plume de carottes"	"http://www.plumedecarotte.com"	"Vous trouvez toutes les publications sur le site"	"0"	"0"		"0"			"1100858042"
"138"	"304"	"Groupement Midi-Pyrénées des Amateurs d’Orchidées"	"http://www.gmpao.org"		"0"	"0"		"0"			"1228780800"
"155"	"403"	"Site web du Conservatoire botanique des Antilles françaises - Antenne de la Guadeloupe"	"http://www.cbafguadeloupe.fr"	"Site web du Conservatoire botanique des Antilles françaises - Antenne de la Guadeloupe"	"0"	"0"		"0"			"1150215841"
"139"	"143"	"Muséum National d'Histoire Naturelle - site Inventaire National du 
Patrimoine Naturel
"	"http://inpn.mnhn.fr/isb/index.jsp"		"0"	"0"		"0"			"1030402800"
"140"	"307"	"Société des sciences historiques et naturelles de la Corse - SSHNC"	"http://www.societesciencescorse.com/"	"Archéologie, Biologie, zoologie, botanique, Ecologie, environnement, Ethnologie, anthropologie, folklore, Géographie, Géologie, Histoire de l'art, Histoire locale, Histoire régionale, Paléontologie, PROTECTION ET VALORISATION DU PATRIMOINE "	"0"	"0"		"0"			"1124361120"
"141"	"255"	"Société Mycologique et Botanique de Catalogne Nord"	"http://smbcn.free.fr/"		"0"	"0"		"0"			"1124361121"
"142"	"0"	"Site personnel \"Herbier virtuel 66\" de Josette Argaud"	"Http://perso.wanadoo.fr/argaud/botanique/index.html"	"Herbier, scans, pyrénées orientales, flore,"	"0"	"0"		"0"			"1124361122"
"143"	"0"	"Site sur les fruits toxiques"	"http://www.pharma.univ-tours.fr/belladonna/"	"Fruits toxiques"	"0"	"0"		"0"			"1124361123"
"144"	"0"	"Site personnel de la flore des Alpes"	"http://webflore.free.fr"	"Site rassemblant la quasi-totalité de la flore des alpes du sud (env 800 espèces) avec photos et descriptions scientifiques pour chaqu'une des fleurs. On y trouve également un moteur de recherche multi-critères permettant de recherche une fleurs en rentrant des critères tels que le forme de la fleur, des feuilles, etc."	"0"	"0"		"0"			"1124361124"
"145"	"0"	"Site dédié à l'identification des espèces"	"http://www.vertdeterre.com/nature/vegetal/herbacees.php"	"Méthode visuelle de détermination"	"0"	"0"		"0"			"1124361125"
"146"	"0"	"Site présentant un large éventail de la flore du continent asiatique"	" http://www.asianflora.com"	"Site présentant de nombreuses photos prises lors des 5 premiers voyages sur ce continent. Vous y trouverez également les différents travaux photos réalisés sur les végétaux (macros photos) et de nombreux paysages de Chine, d'Himalaya, du Liban...."	"0"	"0"		"0"			"1124361126"
"147"	"0"	"25000 photos de plantes"	" http://sophy.u-3mrs.fr/photohtm/LIENPLAN.HTM"		"0"	"0"		"0"			"1124361127"
"148"	"0"	"Photos de graines courantes"	"http://www.ag.ohio-state.edu/~seedbio/seed_id/index.html"		"0"	"0"		"0"			"1124361128"
"149"	"0"	"Site sur les algues"	"http://www.algaebase.org/"	"Site sur les algues"	"0"	"0"		"0"			"1124361129"
"150"	"0"	"Site sur les champignons"	"http://www.indexfungorum.org/Names/Names.asp"	"Site sur les champignons"	"0"	"0"		"0"			"1124361130"
"151"	"0"	"Flore du sahara"	"http://pageperso.aol.fr/fmeignant/FloSahAcc.html"		"0"	"0"		"0"			"1124361131"
"152"	"0"	"Site sur les oiseaux"	"http://www.oiseaux.net/photos/georges.olioso/"	"Site sur les oiseaux"	"0"	"0"		"0"			"1124361132"
"153"	"402"	"Site de l'IFN"	"http://www.ifn.fr/spip/"		"0"	"0"		"0"			"1124361133"
"154"	"403"	"Site web de l'association \"les Journées Coste\""	"http://www.lesjourneescoste.com/"		"0"	"0"	"logo_les_journees_costes.jpg"	"0"			"1124361133"
"156"	"0"	"Site des végétaliseurs"	"http://www.les-vegetaliseurs.com/"	"<strong>\"Les végétaliseurs\" </strong>est une initiative citoyenne innovante de protection de l'environnement initiée et développée par plusieurs salariés de l'entreprise Yves Rocher."	"1"	"0"	"http://www.les-vegetaliseurs.com/images/logo-btn2.jpg"	"0"	"L'objectif principal des Végétaliseurs est de créer la plus grande communauté possible de passionnés de la nature (experts ou néophytes), pour échanger sur l'actualité verte tout en apprenant, partageant et diffusant au plus grand nombre, les gestes simples de protection de l'environnement ainsi que l'amour de la nature. "	NULL	"0"
"157"	"0"	"Inventaire de la flore de Oudon"	"http://www.oudon.net/"	", une petite commune de Loire-Atlantique, entre Nantes et Angers.
Moteur de recherche d'une fleur pouvant utiliser la couleur, le mois de floraison, le milieu (forêt, jardin, Loire, rivière, étang, prairie). "	"0"	"0"	NULL	"0"	NULL	NULL	"0"
"158"	"293"	"Association Botanique Gersoise"	"http://assobotanique32.free.fr/"		"0"	"0"	NULL	"0"	NULL	NULL	"1192579200"
"159"	"289"	"Réseau Partenarial des Acteurs du Patrimoine Naturel de Poitou-Charentes"	"http://www.biodiversite-poitou-charentes.org"	"Le Réseau Partenarial des Acteurs du Patrimoine Naturel, animé par l’Observatoire Régional de l’Environnement, a pour objectifs d’améliorer la circulation, la valorisation et l’information sur la biodiversité pour tous les publics en Poitou-Charentes. L’Etat, la Région, les associations (Poitou-Charentes-Nature, LPO, SFO, CREN, Fédérations de Pêche...) s’investissement dans ce réseau pour organiser l’accès aux données sur la biodiversité en Poitou-Charentes."	"0"	"0"	NULL	"0"	NULL	NULL	"1195516800"
"161"	"407"	"Editions de Terran"	"http://www.terran.fr"	NULL	"0"	"0"	NULL	"0"	NULL	NULL	"1210809600"
"162"	"408"	"Société vaudoise des sciences naturelles"	"http://www.unil.ch"	NULL	"0"	"0"	NULL	"0"	NULL	NULL	"1214870400"
"163"	"410"	"Universidad de Barcelona. Departamento de Biología Vegetal"	"http://www.ub.es/bioveg/"	NULL	"0"	"0"	NULL	"0"	NULL	NULL	"1223942400"
"164"	"111"	"Conservatoire Botanique National de Bailleul"	"http://www.cbnbl.org/"	NULL	"0"	"0"	NULL	"0"	NULL	NULL	"1223942400"
"167"	"5"	"Association de Recherche et d'Informations sur les Déserts Et les Succulentes"	"http://www.arides.info/"		"0"	"0"		"0"			"1228262400"
"168"	"179"	"Association des Croqueurs de Pommes"	"http://www.croqueurs-de-pommes.asso.fr/"		"0"	"0"		"0"			"1228262400"
"169"	"272"	"Association les haies du Puy-de-Dôme"	"http://www.haiesdupuydedome.fr/"		"0"	"0"		"0"			"1228262400"
"170"	"25"	"Auvergne et Nature"	"http://www.auvergnebaignadesbio.com/"		"0"	"0"		"0"			"1228262400"
"171"	"192"	"Centre Interrégional de Recherche et d'Expérimentation de la fraise "	"http://www.ciref.fr/"		"0"	"0"		"0"			"1228262400"
"172"	"114"	"Conservatoire Botanique National de Mascarin"	"http://www.cbnm.org/"		"0"	"0"		"0"			"1228262400"
"173"	"117"	"Conservatoire de l'Espace du Littoral"	"http://www.conservatoire-du-littoral.fr"		"0"	"0"		"0"			"1228262400"
"174"	"32"	"Couleur Garance"	"http://www.couleurgarance.com/"		"0"	"0"		"0"			"1228262400"
"175"	"206"	"Domaine de Valombreuse"	"http://www.valombreuse.com/"		"0"	"0"		"0"			"1228262400"
"176"	"120"	"Espaces Naturels de France"	"http://www.enf-conservatoires.org/"		"0"	"0"		"0"			"1228262400"
"177"	"42"	"Fédération Rhône-Alpes de Protection de la Nature - Drôme"	"http://www.frapna.org/drome/"		"0"	"0"		"0"			"1228780800"
"178"	"47"	"Fédération Rhône-Alpes de Protection de la Nature - Savoie"	"http://www.frapna.org/savoie/"		"0"	"0"		"0"			"1228780800"
"179"	"46"	"Fédération Rhône-Alpes de Protection de la Nature - Rhône"	"http://www.frapna.org/rhone/"		"0"	"0"		"0"			"1228780800"
"180"	"221"	"Jardin du Luxembourg"	"http://www.senat.fr/visite/jardin/"		"0"	"0"		"0"			"1228780800"
"181"	"55"	"Jardiniers de France "	"http://www.jardiniersdefrance.fr/ "		"0"	"0"		"0"			"1228780800"
"182"	"223"	"Jardins Botaniques de France et des Pays Francophones"	"http://www.bgci.org/jbf-fr/"		"0"	"0"		"0"			"1228780800"
"183"	"62"	"L'Ecole de l'ADN"	"http://www.ecole-adn.fr/ "		"0"	"0"		"0"			"1228780800"
"184"	"231"	"Mordus de la Pomme"	"http://www.fruitsdebretagne.net/ "		"0"	"0"		"0"			"1228780800"
"185"	"317"	"Musée Requien d'Histoire Naturelle"	"http://www.museum-requien.org/ "		"0"	"0"		"0"			"1229385600"
"186"	"173"	"Muséum d'Histoire Naturelle de Bourges"	"http://www.museum-bourges.net/ "		"0"	"0"		"0"			"1229385600"
"187"	"330"	"Océanopolis "	"http://www.oceanopolis.com/"		"0"	"0"		"0"			"1229385600"
"188"	"127"	"Parc National des Pyrénées"	"http://www.parc-pyrenees.com/ "		"0"	"0"		"0"			"1229385600"
"189"	"357"	"Parc Naturel Régional de Loire Anjou Touraine "	"http://www.parc-loire-anjou-touraine.fr/ "		"0"	"0"		"0"			"1229385600"
"190"	"237"	"Parc Naturel Régional de Lorraine"	"http://www.pnr-lorraine.com/ "		"0"	"0"		"0"			"1229385600"
"191"	"348"	"Parc Naturel Régional des Boucles de la Seine Normande "	"http://www.pnr-seine-normande.com"		"0"	"0"		"0"			"1229385600"
"192"	"353"	"Parc Naturel Régional du Haut Languedoc"	"http://www.parc-haut-languedoc.fr/ "		"0"	"0"		"0"			"1231200000"
"193"	"365"	"Parc Naturel Régional du Pilat"	"http://www.parc-naturel-pilat.fr/ "		"0"	"0"		"0"			"1231200000"
"194"	"366"	"Parc Naturel Régional du Queyras"	"http://www.pnr-queyras.com/ "		"0"	"0"		"0"			"1231200000"
"195"	"368"	"Parc Naturel Régional du Verdon"	"http://www.parcduverdon.fr/ "		"0"	"0"		"0"			"1231200000"
"196"	"354"	"Parc Naturel Régional haute vallée de Chevreuse"	"http://www.parc-naturel-chevreuse.fr/ "		"0"	"0"		"0"			"1231200000"
"197"	"286"	"Pôle-relais tourbières"	"http://www.pole-tourbieres.org/ "		"0"	"0"		"0"			"1231200000"
"198"	"67"	"Promonature"	"http://www.promonature.com/ "		"0"	"0"		"0"			"1231200000"
"199"	"76"	"Société Botanique du Vaucluse"	"http://www.sbvaucluse.org/ "		"0"	"0"		"0"			"1231200000"
"201"	"87"	"Société d'Histoire Naturelle du Doubs"	"http://www.shnd.fr/ "		"0"	"0"		"0"			"1231372800"
"202"	"90"	"Société d'Horticulture et d'Histoire Naturelle de l'Hérault"	"http://www.shhnh.com/"		"0"	"0"		"0"			"1231372800"
"203"	"79"	"Société de Sciences Naturelles et d'Archéologie de la Haute-Marne"	"http://luc.thomas2.free.fr/ssnahm/cadre_ssnahm1.htm "		"0"	"0"		"0"			"1231718400"
"204"	"92"	"Société Industrielle de Mulhouse - Comite des sciences de la nature"	"http://www.sim.asso.fr/"		"0"	"0"		"0"			"1231718400"
"205"	"246"	"Société Pomologique du Berry"	"http://pagesperso-orange.fr/societe.pomologique.berry/ "		"0"	"0"		"0"			"1231718400"
"206"	"101"	"Timarcha"	"http://www.timarcha.org/"		"0"	"0"		"0"			"1231718400"
"207"	"4"	"Union pomologique de l'AFCEV"	"http://www.patrimoinefruitier.org/"		"0"	"0"		"0"			"1231718400"
"208"	"305"	"Conservatoire Botanique National de Franche-Comté"	"http://www.cbnfc.org"		"0"	"0"		"0"			"1231718400"
"209"	"404"	"Conservatoire botanique des Antilles françaises - antenne Guadeloupe"	"http://www.cbafguadeloupe.fr"		"0"	"0"		"0"			"1231718400"
