"15"	"biblio_str"	"137"		"edit"	"alexandre@tela-botanica.org"		"1044356883"
"13"	"biblio_str"	"15"		"edit"	"d.math@wanadoo.fr"		"1036006027"
"11"	"biblio_str"	"70"		"edit"	"d.math@wanadoo.fr"		"1035450316"
"16"	"biblio_str"	"279"	"137"	"update"	"alexandre@tela-botanica.org"		"1044356883"
